test/test-move/look.vcd
$date
	Tue Sep 13 13:03:08 2016
$end
$version
	Icarus Verilog
$end
$timescale
	1ps
$end
$scope module test $end
$scope module sopc $end
$scope module top0 $end
$scope module regfile1 $end
$var reg 32 ! \regs[1] [31:0] $end
$upscope $end
$upscope $end
$upscope $end
$upscope $end
$scope module test $end
$scope module sopc $end
$scope module top0 $end
$scope module regfile1 $end
$var reg 32 " \regs[2] [31:0] $end
$upscope $end
$upscope $end
$upscope $end
$upscope $end
$scope module test $end
$scope module sopc $end
$scope module top0 $end
$scope module regfile1 $end
$var reg 32 # \regs[3] [31:0] $end
$upscope $end
$upscope $end
$upscope $end
$upscope $end
$scope module test $end
$scope module sopc $end
$scope module top0 $end
$scope module regfile1 $end
$var reg 32 $ \regs[4] [31:0] $end
$upscope $end
$upscope $end
$upscope $end
$upscope $end
$scope module test $end
$scope module sopc $end
$scope module top0 $end
$scope module regfile1 $end
$var reg 32 % \regs[5] [31:0] $end
$upscope $end
$upscope $end
$upscope $end
$upscope $end
$scope module test $end
$var reg 1 & clock $end
$var reg 1 ' reset $end
$scope module sopc $end
$var wire 1 & clk $end
$var wire 1 ' rst $end
$var wire 1 ( rom_ce $end
$var wire 1 ) mem_we_i $end
$var wire 4 * mem_sel_i [3:0] $end
$var wire 32 + mem_data_o [31:0] $end
$var wire 32 , mem_data_i [31:0] $end
$var wire 1 - mem_ce_i $end
$var wire 32 . mem_addr_i [31:0] $end
$var wire 32 / inst_addr [31:0] $end
$var wire 32 0 inst [31:0] $end
$scope module data_ram0 $end
$var wire 1 & clk $end
$var wire 1 ) we $end
$var wire 4 1 sel [3:0] $end
$var wire 32 2 data_i [31:0] $end
$var wire 1 - ce $end
$var wire 32 3 addr [31:0] $end
$var reg 32 4 data_o [31:0] $end
$upscope $end
$scope module inst_rom0 $end
$var wire 1 ( ce $end
$var wire 32 5 addr [31:0] $end
$var reg 32 6 inst [31:0] $end
$upscope $end
$scope module top0 $end
$var wire 1 & clk $end
$var wire 32 7 ram_data_i [31:0] $end
$var wire 32 8 rom_addr_o [31:0] $end
$var wire 32 9 rom_data_i [31:0] $end
$var wire 1 ' rst $end
$var wire 1 : wb_wreg_i $end
$var wire 1 ; wb_whilo_i $end
$var wire 32 < wb_wdata_i [31:0] $end
$var wire 5 = wb_wd_i [4:0] $end
$var wire 32 > wb_lo_i [31:0] $end
$var wire 32 ? wb_hi_i [31:0] $end
$var wire 1 @ stallreq_from_id $end
$var wire 1 A stallreq_from_ex $end
$var wire 6 B stall [5:0] $end
$var wire 1 ( rom_ce_o $end
$var wire 1 C reg2_read $end
$var wire 32 D reg2_data [31:0] $end
$var wire 5 E reg2_addr [4:0] $end
$var wire 1 F reg1_read $end
$var wire 32 G reg1_data [31:0] $end
$var wire 5 H reg1_addr [4:0] $end
$var wire 1 ) ram_we_o $end
$var wire 4 I ram_sel_o [3:0] $end
$var wire 32 J ram_data_o [31:0] $end
$var wire 1 - ram_ce_o $end
$var wire 32 K ram_addr_o [31:0] $end
$var wire 32 L pc [31:0] $end
$var wire 1 M next_inst_in_delayslot_o $end
$var wire 1 N mem_wreg_o $end
$var wire 1 O mem_wreg_i $end
$var wire 1 P mem_whilo_o $end
$var wire 1 Q mem_whilo_i $end
$var wire 32 R mem_wdata_o [31:0] $end
$var wire 32 S mem_wdata_i [31:0] $end
$var wire 5 T mem_wd_o [4:0] $end
$var wire 5 U mem_wd_i [4:0] $end
$var wire 32 V mem_reg2_i [31:0] $end
$var wire 32 W mem_mem_addr_i [31:0] $end
$var wire 32 X mem_lo_o [31:0] $end
$var wire 32 Y mem_lo_i [31:0] $end
$var wire 32 Z mem_hi_o [31:0] $end
$var wire 32 [ mem_hi_i [31:0] $end
$var wire 8 \ mem_aluop_i [7:0] $end
$var wire 32 ] lo [31:0] $end
$var wire 1 ^ is_in_delayslot_i $end
$var wire 1 _ id_wreg_o $end
$var wire 5 ` id_wd_o [4:0] $end
$var wire 32 a id_reg2_o [31:0] $end
$var wire 32 b id_reg1_o [31:0] $end
$var wire 32 c id_pc_i [31:0] $end
$var wire 32 d id_link_address_o [31:0] $end
$var wire 1 e id_is_in_delayslot_o $end
$var wire 32 f id_inst_o [31:0] $end
$var wire 32 g id_inst_i [31:0] $end
$var wire 1 h id_branch_flag_o $end
$var wire 3 i id_alusel_o [2:0] $end
$var wire 8 j id_aluop_o [7:0] $end
$var wire 64 k hilo_temp_o [63:0] $end
$var wire 64 l hilo_temp_i [63:0] $end
$var wire 32 m hi [31:0] $end
$var wire 1 n ex_wreg_o $end
$var wire 1 o ex_wreg_i $end
$var wire 1 p ex_whilo_o $end
$var wire 32 q ex_wdata_o [31:0] $end
$var wire 5 r ex_wd_o [4:0] $end
$var wire 5 s ex_wd_i [4:0] $end
$var wire 32 t ex_reg2_o [31:0] $end
$var wire 32 u ex_reg2_i [31:0] $end
$var wire 32 v ex_reg1_i [31:0] $end
$var wire 32 w ex_mem_addr_o [31:0] $end
$var wire 32 x ex_lo_o [31:0] $end
$var wire 32 y ex_link_address_i [31:0] $end
$var wire 1 z ex_is_in_delayslot_i $end
$var wire 32 { ex_inst_i [31:0] $end
$var wire 32 | ex_hi_o [31:0] $end
$var wire 3 } ex_alusel_i [2:0] $end
$var wire 8 ~ ex_aluop_o [7:0] $end
$var wire 8 !" ex_aluop_i [7:0] $end
$var wire 2 "" cnt_o [1:0] $end
$var wire 2 #" cnt_i [1:0] $end
$var wire 32 $" branch_target_address [31:0] $end
$scope module control0 $end
$var wire 1 ' rst $end
$var wire 1 @ stallreq_from_id $end
$var wire 1 A stallreq_from_ex $end
$var reg 6 %" stall [5:0] $end
$upscope $end
$scope module ex0 $end
$var wire 8 &" aluop_o [7:0] $end
$var wire 1 '" ov_sum $end
$var wire 32 (" reg1_i_not [31:0] $end
$var wire 32 )" reg2_o [31:0] $end
$var wire 1 ' rst $end
$var wire 1 o wreg_i $end
$var wire 5 *" wd_i [4:0] $end
$var wire 1 ; wb_whilo_i $end
$var wire 32 +" wb_lo_i [31:0] $end
$var wire 32 ," wb_hi_i [31:0] $end
$var wire 32 -" result_sum [31:0] $end
$var wire 32 ." reg2_i_mux [31:0] $end
$var wire 32 /" reg2_i [31:0] $end
$var wire 1 0" reg1_lt_reg2 $end
$var wire 32 1" reg1_i [31:0] $end
$var wire 32 2" opdata2_mult [31:0] $end
$var wire 32 3" opdata1_mult [31:0] $end
$var wire 1 P mem_whilo_i $end
$var wire 32 4" mem_lo_i [31:0] $end
$var wire 32 5" mem_hi_i [31:0] $end
$var wire 32 6" mem_addr_o [31:0] $end
$var wire 32 7" lo_i [31:0] $end
$var wire 32 8" link_address_i [31:0] $end
$var wire 1 z is_in_delayslot_i $end
$var wire 32 9" inst_i [31:0] $end
$var wire 64 :" hilo_temp_i [63:0] $end
$var wire 64 ;" hilo_temp [63:0] $end
$var wire 32 <" hi_i [31:0] $end
$var wire 2 =" cnt_i [1:0] $end
$var wire 3 >" alusel_i [2:0] $end
$var wire 8 ?" aluop_i [7:0] $end
$var reg 32 @" HI [31:0] $end
$var reg 32 A" LO [31:0] $end
$var reg 32 B" arithmetic_result [31:0] $end
$var reg 2 C" cnt_o [1:0] $end
$var reg 32 D" hi_o [31:0] $end
$var reg 64 E" hilo_temp1 [63:0] $end
$var reg 64 F" hilo_temp_o [63:0] $end
$var reg 32 G" lo_o [31:0] $end
$var reg 32 H" logic_result [31:0] $end
$var reg 32 I" move_result [31:0] $end
$var reg 64 J" mul_result [63:0] $end
$var reg 32 K" shift_result [31:0] $end
$var reg 1 A stallreq $end
$var reg 1 L" stallreq_for_madd_msub $end
$var reg 5 M" wd_o [4:0] $end
$var reg 32 N" wdata_o [31:0] $end
$var reg 1 p whilo_o $end
$var reg 1 n wreg_o $end
$upscope $end
$scope module ex_mem0 $end
$var wire 1 & clk $end
$var wire 2 O" cnt_i [1:0] $end
$var wire 8 P" ex_aluop [7:0] $end
$var wire 32 Q" ex_hi [31:0] $end
$var wire 32 R" ex_lo [31:0] $end
$var wire 32 S" ex_mem_addr [31:0] $end
$var wire 32 T" ex_reg2 [31:0] $end
$var wire 5 U" ex_wd [4:0] $end
$var wire 32 V" ex_wdata [31:0] $end
$var wire 1 p ex_whilo $end
$var wire 1 n ex_wreg $end
$var wire 64 W" hilo_i [63:0] $end
$var wire 1 ' rst $end
$var wire 6 X" stall [5:0] $end
$var reg 2 Y" cnt_o [1:0] $end
$var reg 64 Z" hilo_o [63:0] $end
$var reg 8 [" mem_aluop [7:0] $end
$var reg 32 \" mem_hi [31:0] $end
$var reg 32 ]" mem_lo [31:0] $end
$var reg 32 ^" mem_mem_addr [31:0] $end
$var reg 32 _" mem_reg2 [31:0] $end
$var reg 5 `" mem_wd [4:0] $end
$var reg 32 a" mem_wdata [31:0] $end
$var reg 1 Q mem_whilo $end
$var reg 1 O mem_wreg $end
$upscope $end
$scope module hilo_reg0 $end
$var wire 1 & clk $end
$var wire 1 ' rst $end
$var wire 1 ; we $end
$var wire 32 b" lo_i [31:0] $end
$var wire 32 c" hi_i [31:0] $end
$var reg 32 d" hi_o [31:0] $end
$var reg 32 e" lo_o [31:0] $end
$upscope $end
$scope module id0 $end
$var wire 8 f" ex_aluop_i [7:0] $end
$var wire 5 g" ex_wd_i [4:0] $end
$var wire 32 h" ex_wdata_i [31:0] $end
$var wire 1 n ex_wreg_i $end
$var wire 32 i" inst_o [31:0] $end
$var wire 1 ' rst $end
$var wire 1 @ stallreq $end
$var wire 32 j" reg2_data_i [31:0] $end
$var wire 32 k" reg1_data_i [31:0] $end
$var wire 1 l" pre_inst_is_load $end
$var wire 32 m" pc_plus_8 [31:0] $end
$var wire 32 n" pc_plus_4 [31:0] $end
$var wire 32 o" pc_i [31:0] $end
$var wire 5 p" op4 [4:0] $end
$var wire 6 q" op3 [5:0] $end
$var wire 5 r" op2 [4:0] $end
$var wire 6 s" op [5:0] $end
$var wire 1 N mem_wreg_i $end
$var wire 32 t" mem_wdata_i [31:0] $end
$var wire 5 u" mem_wd_i [4:0] $end
$var wire 1 ^ is_in_delayslot_i $end
$var wire 32 v" inst_i [31:0] $end
$var wire 32 w" imm_sll2_signedext [31:0] $end
$var reg 8 x" aluop_o [7:0] $end
$var reg 3 y" alusel_o [2:0] $end
$var reg 1 h branch_flag_o $end
$var reg 32 z" branch_target_address_o [31:0] $end
$var reg 32 {" imm [31:0] $end
$var reg 1 |" instvalid $end
$var reg 1 e is_in_delayslot_o $end
$var reg 32 }" link_addr_o [31:0] $end
$var reg 1 M next_inst_in_delayslot_o $end
$var reg 5 ~" reg1_addr_o [4:0] $end
$var reg 32 !# reg1_o [31:0] $end
$var reg 1 F reg1_read_o $end
$var reg 5 "# reg2_addr_o [4:0] $end
$var reg 32 ## reg2_o [31:0] $end
$var reg 1 C reg2_read_o $end
$var reg 1 $# stallreq_for_reg1_loadrelate $end
$var reg 1 %# stallreq_for_reg2_loadrelate $end
$var reg 5 &# wd_o [4:0] $end
$var reg 1 _ wreg_o $end
$upscope $end
$scope module id_ex0 $end
$var wire 1 & clk $end
$var wire 8 '# id_aluop [7:0] $end
$var wire 3 (# id_alusel [2:0] $end
$var wire 32 )# id_inst [31:0] $end
$var wire 1 e id_is_in_delayslot $end
$var wire 32 *# id_link_address [31:0] $end
$var wire 32 +# id_reg1 [31:0] $end
$var wire 32 ,# id_reg2 [31:0] $end
$var wire 5 -# id_wd [4:0] $end
$var wire 1 _ id_wreg $end
$var wire 1 M next_inst_in_delayslot_i $end
$var wire 1 ' rst $end
$var wire 6 .# stall [5:0] $end
$var reg 8 /# ex_aluop [7:0] $end
$var reg 3 0# ex_alusel [2:0] $end
$var reg 32 1# ex_inst [31:0] $end
$var reg 1 z ex_is_in_delayslot $end
$var reg 32 2# ex_link_address [31:0] $end
$var reg 32 3# ex_reg1 [31:0] $end
$var reg 32 4# ex_reg2 [31:0] $end
$var reg 5 5# ex_wd [4:0] $end
$var reg 1 o ex_wreg $end
$var reg 1 ^ is_in_delayslot_o $end
$upscope $end
$scope module if_id0 $end
$var wire 1 & clk $end
$var wire 32 6# if_inst [31:0] $end
$var wire 1 ' rst $end
$var wire 6 7# stall [5:0] $end
$var wire 32 8# if_pc [31:0] $end
$var reg 32 9# id_inst [31:0] $end
$var reg 32 :# id_pc [31:0] $end
$upscope $end
$scope module mem0 $end
$var wire 8 ;# aluop_i [7:0] $end
$var wire 32 <# hi_i [31:0] $end
$var wire 32 =# lo_i [31:0] $end
$var wire 32 ># mem_addr_i [31:0] $end
$var wire 32 ?# mem_data_i [31:0] $end
$var wire 1 ) mem_we_o $end
$var wire 32 @# reg2_i [31:0] $end
$var wire 1 ' rst $end
$var wire 5 A# wd_i [4:0] $end
$var wire 32 B# wdata_i [31:0] $end
$var wire 1 Q whilo_i $end
$var wire 1 O wreg_i $end
$var wire 32 C# zero32 [31:0] $end
$var reg 32 D# hi_o [31:0] $end
$var reg 32 E# lo_o [31:0] $end
$var reg 32 F# mem_addr_o [31:0] $end
$var reg 1 - mem_ce_o $end
$var reg 32 G# mem_data_o [31:0] $end
$var reg 4 H# mem_sel_o [3:0] $end
$var reg 1 I# mem_we $end
$var reg 5 J# wd_o [4:0] $end
$var reg 32 K# wdata_o [31:0] $end
$var reg 1 P whilo_o $end
$var reg 1 N wreg_o $end
$upscope $end
$scope module mem_wb0 $end
$var wire 1 & clk $end
$var wire 32 L# mem_hi [31:0] $end
$var wire 32 M# mem_lo [31:0] $end
$var wire 5 N# mem_wd [4:0] $end
$var wire 32 O# mem_wdata [31:0] $end
$var wire 1 P mem_whilo $end
$var wire 1 N mem_wreg $end
$var wire 1 ' rst $end
$var wire 6 P# stall [5:0] $end
$var reg 32 Q# wb_hi [31:0] $end
$var reg 32 R# wb_lo [31:0] $end
$var reg 5 S# wb_wd [4:0] $end
$var reg 32 T# wb_wdata [31:0] $end
$var reg 1 ; wb_whilo $end
$var reg 1 : wb_wreg $end
$upscope $end
$scope module pc_reg0 $end
$var wire 1 h branch_flag_i $end
$var wire 32 U# branch_target_address_i [31:0] $end
$var wire 1 & clk $end
$var wire 1 ' rst $end
$var wire 6 V# stall [5:0] $end
$var reg 1 ( ce $end
$var reg 32 W# pc [31:0] $end
$upscope $end
$scope module regfile1 $end
$var wire 1 & clk $end
$var wire 5 X# raddr1 [4:0] $end
$var wire 5 Y# raddr2 [4:0] $end
$var wire 1 F re1 $end
$var wire 1 C re2 $end
$var wire 1 ' rst $end
$var wire 5 Z# waddr [4:0] $end
$var wire 32 [# wdata [31:0] $end
$var wire 1 : we $end
$var reg 32 \# rdata1 [31:0] $end
$var reg 32 ]# rdata2 [31:0] $end
$upscope $end
$upscope $end
$upscope $end
$upscope $end
$enddefinitions $end
#0
$dumpvars
b0 ]#
b0 \#
bx [#
bx Z#
b0 Y#
b0 X#
bx W#
b0 V#
b0 U#
bx T#
bx S#
bx R#
bx Q#
b0 P#
b0 O#
b0 N#
b0 M#
b0 L#
b0 K#
b0 J#
0I#
b0 H#
b0 G#
b0 F#
b0 E#
b0 D#
b0 C#
bx B#
bx A#
bx @#
b0 ?#
bx >#
bx =#
bx <#
bx ;#
bx :#
bx 9#
bx 8#
b0 7#
bx 6#
bx 5#
bx 4#
bx 3#
bx 2#
bx 1#
bx 0#
bx /#
b0 .#
b0 -#
b0 ,#
b0 +#
b0 *#
bx )#
b0 (#
b0 '#
b0 &#
0%#
0$#
b0 ##
b0 "#
b0 !#
b0 ~"
b0 }"
1|"
b0 {"
b0 z"
b0 y"
b0 x"
bx00 w"
bx v"
b0 u"
b0 t"
bx s"
bx r"
bx q"
bx p"
bx o"
bx n"
bx m"
xl"
b0 k"
b0 j"
bx i"
b0 h"
bx g"
bx f"
bx e"
bx d"
bx c"
bx b"
bx a"
bx `"
bx _"
bx ^"
bx ]"
bx \"
bx ["
bx Z"
bx Y"
b0 X"
b0 W"
b0 V"
bx U"
bx T"
bx S"
b0 R"
b0 Q"
bx P"
b0 O"
b0 N"
bx M"
0L"
b0 K"
b0 J"
b0 I"
b0 H"
b0 G"
b0 F"
bx E"
b0 D"
b0 C"
b0 B"
b0 A"
b0 @"
bx ?"
bx >"
bx ="
bx <"
bx ;"
bx :"
bx 9"
bx 8"
bx 7"
bx 6"
b0 5"
b0 4"
bx 3"
bx 2"
bx 1"
x0"
bx /"
bx ."
bx -"
bx ,"
bx +"
bx *"
bx )"
bx ("
x'"
bx &"
b0 %"
b0 $"
bx #"
b0 ""
bx !"
bx ~
bx }
b0 |
bx {
xz
bx y
b0 x
bx w
bx v
bx u
bx t
bx s
bx r
b0 q
0p
xo
xn
bx m
bx l
b0 k
b0 j
b0 i
0h
bx g
bx f
xe
b0 d
bx c
b0 b
b0 a
b0 `
0_
x^
bx ]
bx \
bx [
b0 Z
bx Y
b0 X
bx W
bx V
bx U
b0 T
bx S
b0 R
xQ
0P
xO
0N
0M
bx L
b0 K
b0 J
b0 I
b0 H
b0 G
0F
b0 E
b0 D
0C
b0 B
0A
0@
bx ?
bx >
bx =
bx <
x;
x:
bx 9
bx 8
b0 7
bx 6
bx 5
b0 4
b0 3
b0 2
b0 1
bx 0
bx /
b0 .
0-
b0 ,
b0 +
b0 *
0)
x(
1'
0&
bx %
bx $
bx #
bx "
bx !
$end
#1000
b0 0
b0 6
b0 9
b0 6#
0n
b0 r
b0 M"
b0 U"
b0 g"
0l"
0'"
b0 w"
b0 p"
b0 q"
b0 r"
b0 s"
b0 w
b0 6"
b0 S"
b0 -"
b0 ."
b0 ;"
b0 2"
b0 3"
b11111111111111111111111111111111 ("
00"
0(
b0 f
b0 i"
b0 )#
b0 g
b0 v"
b0 9#
b100 n"
b1000 m"
b0 c
b0 o"
b0 :#
b0 {
b0 9"
b0 1#
0^
0z
b0 y
b0 8"
b0 2#
0o
b0 s
b0 *"
b0 5#
b0 t
b0 )"
b0 T"
b0 u
b0 /"
b0 4#
b0 v
b0 1"
b0 3#
b0 }
b0 >"
b0 0#
b0 ~
b0 &"
b0 P"
b0 f"
b0 !"
b0 ?"
b0 /#
b0 V
b0 _"
b0 @#
b0 W
b0 ^"
b0 >#
b0 \
b0 ["
b0 ;#
b0 #"
b0 ="
b0 Y"
b0 l
b0 :"
b0 Z"
b0 Y
b0 ]"
b0 =#
b0 [
b0 \"
b0 <#
0Q
b0 S
b0 a"
b0 B#
0O
b0 U
b0 `"
b0 A#
b0 >
b0 +"
b0 b"
b0 R#
b0 ?
b0 ,"
b0 c"
b0 Q#
0;
b0 <
b0 T#
b0 [#
0:
b0 =
b0 S#
b0 Z#
b0 ]
b0 7"
b0 e"
b0 m
b0 <"
b0 d"
1&
#2000
0&
#3000
b0 /
b0 5
b0 8
b0 L
b0 8#
b0 W#
1&
#4000
0&
#5000
1&
#6000
0&
#7000
1&
#8000
0&
#9000
1&
#10000
0&
#11000
1&
#12000
0&
#13000
1&
#14000
0&
#15000
1&
#16000
0&
#17000
1&
#18000
0&
#19000
1&
#20000
1C
b10 i
b10 y"
b10 (#
b1111100 j
b1111100 x"
b1111100 '#
1_
1|"
b1111 *
b1111 1
b1111 I
b1111 H#
0&
0'
#21000
b111100000000010000000000000000 0
b111100000000010000000000000000 6
b111100000000010000000000000000 9
b111100000000010000000000000000 6#
1n
1(
xz
1o
b10 }
b10 >"
b10 0#
b1111100 ~
b1111100 &"
b1111100 P"
b1111100 f"
b1111100 !"
b1111100 ?"
b1111100 /#
1&
#22000
0&
#23000
b1 `
b1 &#
b1 -#
1F
1N
b1 E
b1 "#
b1 Y#
0C
1|"
1_
b1 i
b1 y"
b1 (#
b100101 j
b100101 x"
b100101 '#
b111100000000101111111111111111 0
b111100000000101111111111111111 6
b111100000000101111111111111111 9
b111100000000101111111111111111 6#
b1 p"
b1111 s"
b1111100 \
b1111100 ["
b1111100 ;#
1O
b111100000000010000000000000000 f
b111100000000010000000000000000 i"
b111100000000010000000000000000 )#
b111100000000010000000000000000 g
b111100000000010000000000000000 v"
b111100000000010000000000000000 9#
b100 /
b100 5
b100 8
b100 L
b100 8#
b100 W#
1&
#24000
0&
#25000
b11111111111111110000000000000000 a
b11111111111111110000000000000000 ##
b11111111111111110000000000000000 ,#
b111100000000110000010100000101 0
b111100000000110000010100000101 6
b111100000000110000010100000101 9
b111100000000110000010100000101 6#
b11111111111111110000000000000000 {"
b10 E
b10 "#
b10 Y#
1F
1|"
1_
b10 `
b10 &#
b10 -#
b1 i
b1 y"
b1 (#
b100101 j
b100101 x"
b100101 '#
b1 r
b1 M"
b1 U"
b1 g"
b11111111111111111111111111111100 w"
b10 p"
b111111 q"
b11111 r"
b1000 /
b1000 5
b1000 8
b1000 L
b1000 8#
b1000 W#
b111100000000101111111111111111 f
b111100000000101111111111111111 i"
b111100000000101111111111111111 )#
b111100000000101111111111111111 g
b111100000000101111111111111111 v"
b111100000000101111111111111111 9#
b1000 n"
b1100 m"
b100 c
b100 o"
b100 :#
b111100000000010000000000000000 {
b111100000000010000000000000000 9"
b111100000000010000000000000000 1#
b1 s
b1 *"
b1 5#
b1 }
b1 >"
b1 0#
b100101 ~
b100101 &"
b100101 P"
b100101 f"
b100101 !"
b100101 ?"
b100101 /#
1:
1&
#26000
0&
#27000
b11111111111111110000000000000000 q
b11111111111111110000000000000000 N"
b11111111111111110000000000000000 V"
b11111111111111110000000000000000 h"
b101000001010000000000000000 a
b101000001010000000000000000 ##
b101000001010000000000000000 ,#
b1 T
b1 u"
b1 J#
b1 N#
b10 r
b10 M"
b10 U"
b10 g"
b11111111111111110000000000000000 H"
b101000001010000000000000000 {"
b11 E
b11 "#
b11 Y#
1F
1|"
1_
b11 `
b11 &#
b11 -#
b1 i
b1 y"
b1 (#
b100101 j
b100101 x"
b100101 '#
b111100000001000000000000000000 0
b111100000001000000000000000000 6
b111100000001000000000000000000 9
b111100000001000000000000000000 6#
b11111111111111111111111111111111 w
b11111111111111111111111111111111 6"
b11111111111111111111111111111111 S"
10"
b11111111111111110000000000000000 -"
b11111111111111110000000000000000 ."
b11111111111111110000000000000000 2"
b1010000010100 w"
b11 p"
b101 q"
b10100 r"
b100101 \
b100101 ["
b100101 ;#
b1 U
b1 `"
b1 A#
b111100000000101111111111111111 {
b111100000000101111111111111111 9"
b111100000000101111111111111111 1#
b10 s
b10 *"
b10 5#
b11111111111111110000000000000000 t
b11111111111111110000000000000000 )"
b11111111111111110000000000000000 T"
b11111111111111110000000000000000 u
b11111111111111110000000000000000 /"
b11111111111111110000000000000000 4#
b111100000000110000010100000101 f
b111100000000110000010100000101 i"
b111100000000110000010100000101 )#
b111100000000110000010100000101 g
b111100000000110000010100000101 v"
b111100000000110000010100000101 9#
b1100 n"
b10000 m"
b1000 c
b1000 o"
b1000 :#
b1100 /
b1100 5
b1100 8
b1100 L
b1100 8#
b1100 W#
1&
#28000
0&
#29000
b101000001010000000000000000 q
b101000001010000000000000000 N"
b101000001010000000000000000 V"
b101000001010000000000000000 h"
b0 a
b0 ##
b0 ,#
b10000010010000000001010 0
b10000010010000000001010 6
b10000010010000000001010 9
b10000010010000000001010 6#
b0 {"
b100 E
b100 "#
b100 Y#
1F
1|"
1_
b100 `
b100 &#
b100 -#
b1 i
b1 y"
b1 (#
b100101 j
b100101 x"
b100101 '#
b11 r
b11 M"
b11 U"
b11 g"
b101000001010000000000000000 H"
b11111111111111110000000000000000 R
b11111111111111110000000000000000 t"
b11111111111111110000000000000000 K#
b11111111111111110000000000000000 O#
b10 T
b10 u"
b10 J#
b10 N#
b0 w"
b100 p"
b0 q"
b0 r"
b10100000101 w
b10100000101 6"
b10100000101 S"
b101000001010000000000000000 -"
b101000001010000000000000000 ."
b101000001010000000000000000 2"
b10000 /
b10000 5
b10000 8
b10000 L
b10000 8#
b10000 W#
b111100000001000000000000000000 f
b111100000001000000000000000000 i"
b111100000001000000000000000000 )#
b111100000001000000000000000000 g
b111100000001000000000000000000 v"
b111100000001000000000000000000 9#
b10000 n"
b10100 m"
b1100 c
b1100 o"
b1100 :#
b111100000000110000010100000101 {
b111100000000110000010100000101 9"
b111100000000110000010100000101 1#
b11 s
b11 *"
b11 5#
b101000001010000000000000000 t
b101000001010000000000000000 )"
b101000001010000000000000000 T"
b101000001010000000000000000 u
b101000001010000000000000000 /"
b101000001010000000000000000 4#
b11111111111111110000000000000000 V
b11111111111111110000000000000000 _"
b11111111111111110000000000000000 @#
b11111111111111111111111111111111 W
b11111111111111111111111111111111 ^"
b11111111111111111111111111111111 >#
b11111111111111110000000000000000 S
b11111111111111110000000000000000 a"
b11111111111111110000000000000000 B#
b10 U
b10 `"
b10 A#
b1 =
b1 S#
b1 Z#
1&
#30000
0&
#31000
b11111111111111110000000000000000 b
b11111111111111110000000000000000 !#
b11111111111111110000000000000000 +#
b0 q
b0 N"
b0 V"
b0 h"
b11111111111111110000000000000000 G
b11111111111111110000000000000000 k"
b11111111111111110000000000000000 \#
1C
b101000001010000000000000000 R
b101000001010000000000000000 t"
b101000001010000000000000000 K#
b101000001010000000000000000 O#
b11 T
b11 u"
b11 J#
b11 N#
b100 r
b100 M"
b100 U"
b100 g"
b0 H"
b100 `
b100 &#
b100 -#
b0 {"
b1 E
b1 "#
b1 Y#
b10 H
b10 ~"
b10 X#
1F
1|"
1_
b11 i
b11 y"
b11 (#
b1010 j
b1010 x"
b1010 '#
b11000010010000000001011 0
b11000010010000000001011 6
b11000010010000000001011 9
b11000010010000000001011 6#
b0 w
b0 6"
b0 S"
00"
b0 -"
b0 ."
b0 2"
b1000000000101000 w"
b1 p"
b1010 q"
b0 s"
b11111111111111110000000000000000 <
b11111111111111110000000000000000 T#
b11111111111111110000000000000000 [#
b10 =
b10 S#
b10 Z#
b101000001010000000000000000 V
b101000001010000000000000000 _"
b101000001010000000000000000 @#
b10100000101 W
b10100000101 ^"
b10100000101 >#
b101000001010000000000000000 S
b101000001010000000000000000 a"
b101000001010000000000000000 B#
b11 U
b11 `"
b11 A#
b111100000001000000000000000000 {
b111100000001000000000000000000 9"
b111100000001000000000000000000 1#
b100 s
b100 *"
b100 5#
b0 t
b0 )"
b0 T"
b0 u
b0 /"
b0 4#
b0 !
b10000010010000000001010 f
b10000010010000000001010 i"
b10000010010000000001010 )#
b10000010010000000001010 g
b10000010010000000001010 v"
b10000010010000000001010 9#
b10100 n"
b11000 m"
b10000 c
b10000 o"
b10000 :#
b10100 /
b10100 5
b10100 8
b10100 L
b10100 8#
b10100 W#
1&
#32000
0&
#33000
b101000001010000000000000000 b
b101000001010000000000000000 !#
b101000001010000000000000000 +#
b101000001010000000000000000 G
b101000001010000000000000000 k"
b101000001010000000000000000 \#
b11111111111111110000000000000000 q
b11111111111111110000000000000000 N"
b11111111111111110000000000000000 V"
b11111111111111110000000000000000 h"
b11000100010000000001011 0
b11000100010000000001011 6
b11000100010000000001011 9
b11000100010000000001011 6#
b11 H
b11 ~"
b11 X#
1C
1F
1|"
0_
b11 i
b11 y"
b11 (#
b1011 j
b1011 x"
b1011 '#
b11111111111111110000000000000000 I"
b0 R
b0 t"
b0 K#
b0 O#
b100 T
b100 u"
b100 J#
b100 N#
0'"
b1000000000101100 w"
b1011 q"
b11111111111111110000000000000000 3"
b1111111111111111 ("
b11000 /
b11000 5
b11000 8
b11000 L
b11000 8#
b11000 W#
b11000010010000000001011 f
b11000010010000000001011 i"
b11000010010000000001011 )#
b11000010010000000001011 g
b11000010010000000001011 v"
b11000010010000000001011 9#
b11000 n"
b11100 m"
b10100 c
b10100 o"
b10100 :#
b11111111111111110000000000000000 "
b10000010010000000001010 {
b10000010010000000001010 9"
b10000010010000000001010 1#
b11111111111111110000000000000000 -"
b11111111111111110010000000001010 w
b11111111111111110010000000001010 6"
b11111111111111110010000000001010 S"
b11111111111111110000000000000000 v
b11111111111111110000000000000000 1"
b11111111111111110000000000000000 3#
b11 }
b11 >"
b11 0#
b1010 ~
b1010 &"
b1010 P"
b1010 f"
b1010 !"
b1010 ?"
b1010 /#
b0 V
b0 _"
b0 @#
b0 W
b0 ^"
b0 >#
b0 S
b0 a"
b0 B#
b100 U
b100 `"
b100 A#
b101000001010000000000000000 <
b101000001010000000000000000 T#
b101000001010000000000000000 [#
b11 =
b11 S#
b11 Z#
1&
#34000
0&
