look.vcd
$date
	Sun Sep 11 01:19:19 2016
$end
$version
	Icarus Verilog
$end
$timescale
	1ps
$end
$scope module min_sopc_tb $end
$scope module min_sopc0 $end
$scope module top0 $end
$scope module regfile1 $end
$var reg 32 ! \regs[1] [31:0] $end
$upscope $end
$upscope $end
$upscope $end
$upscope $end
$scope module min_sopc_tb $end
$scope module min_sopc0 $end
$scope module top0 $end
$scope module regfile1 $end
$var reg 32 " \regs[2] [31:0] $end
$upscope $end
$upscope $end
$upscope $end
$upscope $end
$scope module min_sopc_tb $end
$scope module min_sopc0 $end
$scope module top0 $end
$scope module regfile1 $end
$var reg 32 # \regs[3] [31:0] $end
$upscope $end
$upscope $end
$upscope $end
$upscope $end
$scope module min_sopc_tb $end
$scope module min_sopc0 $end
$scope module top0 $end
$scope module regfile1 $end
$var reg 32 $ \regs[4] [31:0] $end
$upscope $end
$upscope $end
$upscope $end
$upscope $end
$scope module min_sopc_tb $end
$scope module min_sopc0 $end
$scope module top0 $end
$scope module regfile1 $end
$var reg 32 % \regs[5] [31:0] $end
$upscope $end
$upscope $end
$upscope $end
$upscope $end
$scope module min_sopc_tb $end
$var reg 1 & CLOCK_50 $end
$var reg 1 ' rst $end
$scope module min_sopc0 $end
$var wire 1 & clk $end
$var wire 1 ' rst $end
$var wire 1 ( rom_ce $end
$var wire 32 ) inst_addr [31:0] $end
$var wire 32 * inst [31:0] $end
$scope module inst_rom0 $end
$var wire 1 ( ce $end
$var wire 32 + addr [31:0] $end
$var reg 32 , inst [31:0] $end
$upscope $end
$scope module top0 $end
$var wire 1 & clk $end
$var wire 32 - rom_addr_o [31:0] $end
$var wire 32 . rom_data_i [31:0] $end
$var wire 1 ' rst $end
$var wire 1 / wb_wreg_i $end
$var wire 1 0 wb_whilo_i $end
$var wire 32 1 wb_wdata_i [31:0] $end
$var wire 5 2 wb_wd_i [4:0] $end
$var wire 32 3 wb_lo_i [31:0] $end
$var wire 32 4 wb_hi_i [31:0] $end
$var wire 1 ( rom_ce_o $end
$var wire 1 5 reg2_read $end
$var wire 32 6 reg2_data [31:0] $end
$var wire 5 7 reg2_addr [4:0] $end
$var wire 1 8 reg1_read $end
$var wire 32 9 reg1_data [31:0] $end
$var wire 5 : reg1_addr [4:0] $end
$var wire 32 ; pc [31:0] $end
$var wire 1 < mem_wreg_o $end
$var wire 1 = mem_wreg_i $end
$var wire 1 > mem_whilo_o $end
$var wire 1 ? mem_whilo_i $end
$var wire 32 @ mem_wdata_o [31:0] $end
$var wire 32 A mem_wdata_i [31:0] $end
$var wire 5 B mem_wd_o [4:0] $end
$var wire 5 C mem_wd_i [4:0] $end
$var wire 32 D mem_lo_o [31:0] $end
$var wire 32 E mem_lo_i [31:0] $end
$var wire 32 F mem_hi_o [31:0] $end
$var wire 32 G mem_hi_i [31:0] $end
$var wire 32 H lo [31:0] $end
$var wire 1 I id_wreg_o $end
$var wire 5 J id_wd_o [4:0] $end
$var wire 32 K id_reg2_o [31:0] $end
$var wire 32 L id_reg1_o [31:0] $end
$var wire 32 M id_pc_i [31:0] $end
$var wire 32 N id_inst_i [31:0] $end
$var wire 3 O id_alusel_o [2:0] $end
$var wire 8 P id_aluop_o [7:0] $end
$var wire 32 Q hi [31:0] $end
$var wire 1 R ex_wreg_o $end
$var wire 1 S ex_wreg_i $end
$var wire 1 T ex_whilo_o $end
$var wire 32 U ex_wdata_o [31:0] $end
$var wire 5 V ex_wd_o [4:0] $end
$var wire 5 W ex_wd_i [4:0] $end
$var wire 32 X ex_reg2_i [31:0] $end
$var wire 32 Y ex_reg1_i [31:0] $end
$var wire 32 Z ex_lo_o [31:0] $end
$var wire 32 [ ex_hi_o [31:0] $end
$var wire 3 \ ex_alusel_i [2:0] $end
$var wire 8 ] ex_aluop_i [7:0] $end
$scope module ex0 $end
$var wire 1 ^ ov_sum $end
$var wire 32 _ reg1_i_not [31:0] $end
$var wire 1 ' rst $end
$var wire 1 S wreg_i $end
$var wire 5 ` wd_i [4:0] $end
$var wire 1 0 wb_whilo_i $end
$var wire 32 a wb_lo_i [31:0] $end
$var wire 32 b wb_hi_i [31:0] $end
$var wire 32 c result_sum [31:0] $end
$var wire 32 d reg2_i_mux [31:0] $end
$var wire 32 e reg2_i [31:0] $end
$var wire 1 f reg1_lt_reg2 $end
$var wire 32 g reg1_i [31:0] $end
$var wire 32 h opdata2_mult [31:0] $end
$var wire 32 i opdata1_mult [31:0] $end
$var wire 1 > mem_whilo_i $end
$var wire 32 j mem_lo_i [31:0] $end
$var wire 32 k mem_hi_i [31:0] $end
$var wire 32 l lo_i [31:0] $end
$var wire 64 m hilo_temp [63:0] $end
$var wire 32 n hi_i [31:0] $end
$var wire 3 o alusel_i [2:0] $end
$var wire 8 p aluop_i [7:0] $end
$var reg 32 q HI [31:0] $end
$var reg 32 r LO [31:0] $end
$var reg 32 s arithmetic_result [31:0] $end
$var reg 32 t hi_o [31:0] $end
$var reg 32 u lo_o [31:0] $end
$var reg 32 v logic_result [31:0] $end
$var reg 32 w move_result [31:0] $end
$var reg 32 x mul_result [31:0] $end
$var reg 32 y shift_result [31:0] $end
$var reg 5 z wd_o [4:0] $end
$var reg 32 { wdata_o [31:0] $end
$var reg 1 T whilo_o $end
$var reg 1 R wreg_o $end
$upscope $end
$scope module ex_mem0 $end
$var wire 1 & clk $end
$var wire 32 | ex_hi [31:0] $end
$var wire 32 } ex_lo [31:0] $end
$var wire 5 ~ ex_wd [4:0] $end
$var wire 32 !" ex_wdata [31:0] $end
$var wire 1 T ex_whilo $end
$var wire 1 R ex_wreg $end
$var wire 1 ' rst $end
$var reg 32 "" mem_hi [31:0] $end
$var reg 32 #" mem_lo [31:0] $end
$var reg 5 $" mem_wd [4:0] $end
$var reg 32 %" mem_wdata [31:0] $end
$var reg 1 ? mem_whilo $end
$var reg 1 = mem_wreg $end
$upscope $end
$scope module hilo_reg0 $end
$var wire 1 & clk $end
$var wire 1 ' rst $end
$var wire 1 0 we $end
$var wire 32 &" lo_i [31:0] $end
$var wire 32 '" hi_i [31:0] $end
$var reg 32 (" hi_o [31:0] $end
$var reg 32 )" lo_o [31:0] $end
$upscope $end
$scope module id0 $end
$var wire 5 *" ex_wd_i [4:0] $end
$var wire 32 +" ex_wdata_i [31:0] $end
$var wire 1 R ex_wreg_i $end
$var wire 1 ' rst $end
$var wire 32 ," reg2_data_i [31:0] $end
$var wire 32 -" reg1_data_i [31:0] $end
$var wire 32 ." pc_i [31:0] $end
$var wire 5 /" op4 [4:0] $end
$var wire 6 0" op3 [5:0] $end
$var wire 5 1" op2 [4:0] $end
$var wire 6 2" op [5:0] $end
$var wire 1 < mem_wreg_i $end
$var wire 32 3" mem_wdata_i [31:0] $end
$var wire 5 4" mem_wd_i [4:0] $end
$var wire 32 5" inst_i [31:0] $end
$var reg 8 6" aluop_o [7:0] $end
$var reg 3 7" alusel_o [2:0] $end
$var reg 32 8" imm [31:0] $end
$var reg 1 9" instvalid $end
$var reg 5 :" reg1_addr_o [4:0] $end
$var reg 32 ;" reg1_o [31:0] $end
$var reg 1 8 reg1_read_o $end
$var reg 5 <" reg2_addr_o [4:0] $end
$var reg 32 =" reg2_o [31:0] $end
$var reg 1 5 reg2_read_o $end
$var reg 5 >" wd_o [4:0] $end
$var reg 1 I wreg_o $end
$upscope $end
$scope module id_ex0 $end
$var wire 1 & clk $end
$var wire 8 ?" id_aluop [7:0] $end
$var wire 3 @" id_alusel [2:0] $end
$var wire 32 A" id_reg1 [31:0] $end
$var wire 32 B" id_reg2 [31:0] $end
$var wire 5 C" id_wd [4:0] $end
$var wire 1 I id_wreg $end
$var wire 1 ' rst $end
$var reg 8 D" ex_aluop [7:0] $end
$var reg 3 E" ex_alusel [2:0] $end
$var reg 32 F" ex_reg1 [31:0] $end
$var reg 32 G" ex_reg2 [31:0] $end
$var reg 5 H" ex_wd [4:0] $end
$var reg 1 S ex_wreg $end
$upscope $end
$scope module if_id0 $end
$var wire 1 & clk $end
$var wire 32 I" if_inst [31:0] $end
$var wire 1 ' rst $end
$var wire 32 J" if_pc [31:0] $end
$var reg 32 K" id_inst [31:0] $end
$var reg 32 L" id_pc [31:0] $end
$upscope $end
$scope module mem0 $end
$var wire 32 M" hi_i [31:0] $end
$var wire 32 N" lo_i [31:0] $end
$var wire 1 ' rst $end
$var wire 5 O" wd_i [4:0] $end
$var wire 32 P" wdata_i [31:0] $end
$var wire 1 ? whilo_i $end
$var wire 1 = wreg_i $end
$var reg 32 Q" hi_o [31:0] $end
$var reg 32 R" lo_o [31:0] $end
$var reg 5 S" wd_o [4:0] $end
$var reg 32 T" wdata_o [31:0] $end
$var reg 1 > whilo_o $end
$var reg 1 < wreg_o $end
$upscope $end
$scope module mem_wb0 $end
$var wire 1 & clk $end
$var wire 32 U" mem_hi [31:0] $end
$var wire 32 V" mem_lo [31:0] $end
$var wire 5 W" mem_wd [4:0] $end
$var wire 32 X" mem_wdata [31:0] $end
$var wire 1 > mem_whilo $end
$var wire 1 < mem_wreg $end
$var wire 1 ' rst $end
$var reg 32 Y" wb_hi [31:0] $end
$var reg 32 Z" wb_lo [31:0] $end
$var reg 5 [" wb_wd [4:0] $end
$var reg 32 \" wb_wdata [31:0] $end
$var reg 1 0 wb_whilo $end
$var reg 1 / wb_wreg $end
$upscope $end
$scope module pc_reg0 $end
$var wire 1 & clk $end
$var wire 1 ' rst $end
$var reg 1 ( ce $end
$var reg 32 ]" pc [31:0] $end
$upscope $end
$scope module regfile1 $end
$var wire 1 & clk $end
$var wire 5 ^" raddr1 [4:0] $end
$var wire 5 _" raddr2 [4:0] $end
$var wire 1 8 re1 $end
$var wire 1 5 re2 $end
$var wire 1 ' rst $end
$var wire 5 `" waddr [4:0] $end
$var wire 32 a" wdata [31:0] $end
$var wire 1 / we $end
$var reg 32 b" rdata1 [31:0] $end
$var reg 32 c" rdata2 [31:0] $end
$upscope $end
$upscope $end
$upscope $end
$upscope $end
$enddefinitions $end
#0
$dumpvars
b0 c"
b0 b"
bx a"
bx `"
b0 _"
b0 ^"
bx ]"
bx \"
bx ["
bx Z"
bx Y"
b0 X"
b0 W"
b0 V"
b0 U"
b0 T"
b0 S"
b0 R"
b0 Q"
bx P"
bx O"
bx N"
bx M"
bx L"
bx K"
bx J"
bx I"
bx H"
bx G"
bx F"
bx E"
bx D"
b0 C"
b0 B"
b0 A"
b0 @"
b0 ?"
b0 >"
b0 ="
b0 <"
b0 ;"
b0 :"
19"
b0 8"
b0 7"
b0 6"
bx 5"
b0 4"
b0 3"
bx 2"
bx 1"
bx 0"
bx /"
bx ."
b0 -"
b0 ,"
b0 +"
bx *"
bx )"
bx ("
bx '"
bx &"
bx %"
bx $"
bx #"
bx ""
b0 !"
bx ~
b0 }
b0 |
b0 {
bx z
b0 y
b0 x
b0 w
b0 v
b0 u
b0 t
b0 s
b0 r
b0 q
bx p
bx o
bx n
bx m
bx l
b0 k
b0 j
bx i
bx h
bx g
xf
bx e
bx d
bx c
bx b
bx a
bx `
bx _
x^
bx ]
bx \
b0 [
b0 Z
bx Y
bx X
bx W
bx V
b0 U
0T
xS
xR
bx Q
b0 P
b0 O
bx N
bx M
b0 L
b0 K
b0 J
0I
bx H
bx G
b0 F
bx E
b0 D
bx C
b0 B
bx A
b0 @
x?
0>
x=
0<
bx ;
b0 :
b0 9
08
b0 7
b0 6
05
bx 4
bx 3
bx 2
bx 1
x0
x/
bx .
bx -
bx ,
bx +
bx *
bx )
x(
1'
0&
bx %
bx $
bx #
bx "
bx !
$end
#10000
b0 *
b0 ,
b0 .
b0 I"
0R
b0 V
b0 z
b0 ~
b0 *"
0^
b0 /"
b0 0"
b0 1"
b0 2"
b0 m
b0 h
b0 c
b0 d
b0 i
b11111111111111111111111111111111 _
0f
0(
b0 N
b0 5"
b0 K"
b0 M
b0 ."
b0 L"
0S
b0 W
b0 `
b0 H"
b0 X
b0 e
b0 G"
b0 Y
b0 g
b0 F"
b0 \
b0 o
b0 E"
b0 ]
b0 p
b0 D"
b0 E
b0 #"
b0 N"
b0 G
b0 ""
b0 M"
0?
b0 A
b0 %"
b0 P"
0=
b0 C
b0 $"
b0 O"
b0 3
b0 a
b0 &"
b0 Z"
b0 4
b0 b
b0 '"
b0 Y"
00
b0 1
b0 \"
b0 a"
0/
b0 2
b0 ["
b0 `"
b0 H
b0 l
b0 )"
b0 Q
b0 n
b0 ("
1&
#20000
0&
#30000
b0 )
b0 +
b0 -
b0 ;
b0 J"
b0 ]"
1&
#40000
0&
#50000
1&
#60000
0&
#70000
1&
#80000
0&
#90000
1&
#100000
0&
#110000
1&
#120000
0&
#130000
1&
#140000
0&
#150000
1&
#160000
0&
#170000
1&
#180000
0&
#190000
1&
#195000
15
b10 O
b10 7"
b10 @"
b1111100 P
b1111100 6"
b1111100 ?"
1I
19"
0'
#200000
0&
#210000
b110100000000011000000000000000 *
b110100000000011000000000000000 ,
b110100000000011000000000000000 .
b110100000000011000000000000000 I"
1R
1(
1S
b10 \
b10 o
b10 E"
b1111100 ]
b1111100 p
b1111100 D"
1&
#220000
0&
#230000
b1000000000000000 K
b1000000000000000 ="
b1000000000000000 B"
b1000000000000000 8"
18
1<
b1 7
b1 <"
b1 _"
05
19"
1I
b1 J
b1 >"
b1 C"
b1 O
b1 7"
b1 @"
b100101 P
b100101 6"
b100101 ?"
b10000110000000000 *
b10000110000000000 ,
b10000110000000000 .
b10000110000000000 I"
b1 /"
b1101 2"
1=
b110100000000011000000000000000 N
b110100000000011000000000000000 5"
b110100000000011000000000000000 K"
b100 )
b100 +
b100 -
b100 ;
b100 J"
b100 ]"
1&
#240000
0&
#250000
bx 6
bx ,"
bx c"
b1000000000000000 K
b1000000000000000 ="
b1000000000000000 B"
b10000 L
b10000 ;"
b10000 A"
b1000000000000000 U
b1000000000000000 {
b1000000000000000 !"
b1000000000000000 +"
b110100001000010000000000010000 *
b110100001000010000000000010000 ,
b110100001000010000000000010000 .
b110100001000010000000000010000 I"
15
b10000 8"
08
19"
1I
b10 O
b10 7"
b10 @"
b1111100 P
b1111100 6"
b1111100 ?"
b1 V
b1 z
b1 ~
b1 *"
b1000000000000000 v
b10000 1"
b0 2"
b1000000000000000 h
1f
b1000000000000000 c
b1000000000000000 d
b1000 )
b1000 +
b1000 -
b1000 ;
b1000 J"
b1000 ]"
b10000110000000000 N
b10000110000000000 5"
b10000110000000000 K"
b100 M
b100 ."
b100 L"
b1 W
b1 `
b1 H"
b1000000000000000 X
b1000000000000000 e
b1000000000000000 G"
b1 \
b1 o
b1 E"
b100101 ]
b100101 p
b100101 D"
1/
1&
#260000
0&
#270000
b10000000000000000000000000000000 L
b10000000000000000000000000000000 ;"
b10000000000000000000000000000000 A"
bx 9
bx -"
bx b"
b10000 K
b10000 ="
b10000 B"
b0 6
b0 ,"
b0 c"
18
b1000000000000000 @
b1000000000000000 3"
b1000000000000000 T"
b1000000000000000 X"
b1 B
b1 4"
b1 S"
b1 W"
b10000000000000000000000000000000 U
b10000000000000000000000000000000 {
b10000000000000000000000000000000 !"
b10000000000000000000000000000000 +"
b10000000000000000000000000000000 y
b0 v
b10000 8"
b1 :
b1 :"
b1 ^"
05
19"
1I
b1 J
b1 >"
b1 C"
b1 O
b1 7"
b1 @"
b100101 P
b100101 6"
b100101 ?"
b110100000000101000000000000000 *
b110100000000101000000000000000 ,
b110100000000101000000000000000 .
b110100000000101000000000000000 I"
b10000000000000000000 m
b10000 i
b11111111111111111111111111101111 _
b10000 0"
b0 1"
b1101 2"
b1000000000000000 A
b1000000000000000 %"
b1000000000000000 P"
b1 C
b1 $"
b1 O"
b1000000000010000 c
b10000 Y
b10000 g
b10000 F"
b10 \
b10 o
b10 E"
b1111100 ]
b1111100 p
b1111100 D"
b110100001000010000000000010000 N
b110100001000010000000000010000 5"
b110100001000010000000000010000 K"
b1000 M
b1000 ."
b1000 L"
b1100 )
b1100 +
b1100 -
b1100 ;
b1100 J"
b1100 ]"
1&
#280000
0&
#290000
b1000000000000000 K
b1000000000000000 ="
b1000000000000000 B"
b0 L
b0 ;"
b0 A"
b100001010000000000 *
b100001010000000000 ,
b100001010000000000 .
b100001010000000000 I"
b1000000000000000 8"
b10 7
b10 <"
b10 _"
b0 :
b0 :"
b0 ^"
18
19"
1I
b10 J
b10 >"
b10 C"
b1 O
b1 7"
b1 @"
b100101 P
b100101 6"
b100101 ?"
b0 x
b10000000000000000000000000010000 U
b10000000000000000000000000010000 {
b10000000000000000000000000010000 !"
b10000000000000000000000000010000 +"
b0 y
b10000000000000000000000000010000 v
b10000000000000000000000000000000 @
b10000000000000000000000000000000 3"
b10000000000000000000000000000000 T"
b10000000000000000000000000000000 X"
b0 9
b0 -"
b0 b"
0^
b10 /"
b0 0"
b10000 h
b10000 d
b100000000000000000000000000000000000 m
b10000000000000000000000000000000 i
0f
b1111111111111111111111111111111 _
b10000 )
b10000 +
b10000 -
b10000 ;
b10000 J"
b10000 ]"
b110100000000101000000000000000 N
b110100000000101000000000000000 5"
b110100000000101000000000000000 K"
b1100 M
b1100 ."
b1100 L"
b10000 X
b10000 e
b10000 G"
b10000000000000000000000000010000 c
b10000000000000000000000000000000 Y
b10000000000000000000000000000000 g
b10000000000000000000000000000000 F"
b1 \
b1 o
b1 E"
b100101 ]
b100101 p
b100101 D"
b10000000000000000000000000000000 A
b10000000000000000000000000000000 %"
b10000000000000000000000000000000 P"
b1000000000000000 1
b1000000000000000 \"
b1000000000000000 a"
b1 2
b1 ["
b1 `"
1&
#300000
0&
#310000
b1000000000000000 U
b1000000000000000 {
b1000000000000000 !"
b1000000000000000 +"
bx 6
bx ,"
bx c"
b1000000000000000 K
b1000000000000000 ="
b1000000000000000 B"
b10000 L
b10000 ;"
b10000 A"
b10000000000000000000000000010000 @
b10000000000000000000000000010000 3"
b10000000000000000000000000010000 T"
b10000000000000000000000000010000 X"
b10 V
b10 z
b10 ~
b10 *"
b1000000000000000 v
15
b10000 8"
08
19"
1I
b10 O
b10 7"
b10 @"
b1111100 P
b1111100 6"
b1111100 ?"
b110100010000100000000000000001 *
b110100010000100000000000000001 ,
b110100010000100000000000000001 .
b110100010000100000000000000001 I"
b1000000000000000 h
b1000000000000000 d
b0 m
b0 i
1f
b11111111111111111111111111111111 _
b10000 1"
b0 2"
b10000000000000000000000000000000 1
b10000000000000000000000000000000 \"
b10000000000000000000000000000000 a"
b10000000000000000000000000010000 A
b10000000000000000000000000010000 %"
b10000000000000000000000000010000 P"
b10 W
b10 `
b10 H"
b1000000000000000 X
b1000000000000000 e
b1000000000000000 G"
b1000000000000000 c
b0 Y
b0 g
b0 F"
b1000000000000000 !
b100001010000000000 N
b100001010000000000 5"
b100001010000000000 K"
b10000 M
b10000 ."
b10000 L"
b10100 )
b10100 +
b10100 -
b10100 ;
b10100 J"
b10100 ]"
1&
#320000
0&
#330000
bx 9
bx -"
bx b"
b0 6
b0 ,"
b0 c"
b1 K
b1 ="
b1 B"
b10000000000000000000000000000000 L
b10000000000000000000000000000000 ;"
b10000000000000000000000000000000 A"
18
b110100000000110000000000000000 *
b110100000000110000000000000000 ,
b110100000000110000000000000000 .
b110100000000110000000000000000 I"
b1 8"
b10 :
b10 :"
b10 ^"
05
19"
1I
b10 J
b10 >"
b10 C"
b1 O
b1 7"
b1 @"
b100101 P
b100101 6"
b100101 ?"
b10000000000000000000000000000000 U
b10000000000000000000000000000000 {
b10000000000000000000000000000000 !"
b10000000000000000000000000000000 +"
b10000000000000000000000000000000 y
b0 v
b1000000000000000 @
b1000000000000000 3"
b1000000000000000 T"
b1000000000000000 X"
b10 B
b10 4"
b10 S"
b10 W"
b1 0"
b0 1"
b1101 2"
b10000000000000000000 m
b10000 i
b11111111111111111111111111101111 _
b11000 )
b11000 +
b11000 -
b11000 ;
b11000 J"
b11000 ]"
b110100010000100000000000000001 N
b110100010000100000000000000001 5"
b110100010000100000000000000001 K"
b10100 M
b10100 ."
b10100 L"
b10000000000000000000000000000000 !
b1000000000010000 c
b10000 Y
b10000 g
b10000 F"
b10 \
b10 o
b10 E"
b1111100 ]
b1111100 p
b1111100 D"
b1000000000000000 A
b1000000000000000 %"
b1000000000000000 P"
b10 C
b10 $"
b10 O"
b10000000000000000000000000010000 1
b10000000000000000000000000010000 \"
b10000000000000000000000000010000 a"
1&
#340000
0&
#350000
b0 K
b0 ="
b0 B"
b0 L
b0 ;"
b0 A"
b10000000000000000000000000000000 @
b10000000000000000000000000000000 3"
b10000000000000000000000000000000 T"
b10000000000000000000000000000000 X"
b10000000000000000000000000000000 x
b10000000000000000000000000000001 U
b10000000000000000000000000000001 {
b10000000000000000000000000000001 !"
b10000000000000000000000000000001 +"
b0 y
b10000000000000000000000000000001 v
b0 9
b0 -"
b0 b"
b0 8"
b11 7
b11 <"
b11 _"
b0 :
b0 :"
b0 ^"
18
19"
1I
b11 J
b11 >"
b11 C"
b1 O
b1 7"
b1 @"
b100101 P
b100101 6"
b100101 ?"
b10000010001100000100001 *
b10000010001100000100001 ,
b10000010001100000100001 .
b10000010001100000100001 I"
0^
b1 h
b1 d
b10000000000000000000000000000000 m
b10000000000000000000000000000000 i
0f
b1111111111111111111111111111111 _
b11 /"
b0 0"
b1000000000000000 1
b1000000000000000 \"
b1000000000000000 a"
b10 2
b10 ["
b10 `"
b10000000000000000000000000000000 A
b10000000000000000000000000000000 %"
b10000000000000000000000000000000 P"
b1 X
b1 e
b1 G"
b10000000000000000000000000000001 c
b10000000000000000000000000000000 Y
b10000000000000000000000000000000 g
b10000000000000000000000000000000 F"
b1 \
b1 o
b1 E"
b100101 ]
b100101 p
b100101 D"
b10000000000000000000000000010000 !
b110100000000110000000000000000 N
b110100000000110000000000000000 5"
b110100000000110000000000000000 K"
b11000 M
b11000 ."
b11000 L"
b11100 )
b11100 +
b11100 -
b11100 ;
b11100 J"
b11100 ]"
1&
#360000
0&
#370000
b10000000000000000000000000010000 K
b10000000000000000000000000010000 ="
b10000000000000000000000000010000 B"
b10000000000000000000000000010000 6
b10000000000000000000000000010000 ,"
b10000000000000000000000000010000 c"
b10000000000000000000000000000000 9
b10000000000000000000000000000000 -"
b10000000000000000000000000000000 b"
b0 U
b0 {
b0 !"
b0 +"
b10000000000000000000000000000001 L
b10000000000000000000000000000001 ;"
b10000000000000000000000000000001 A"
15
b110100000000110000000000000000 *
b110100000000110000000000000000 ,
b110100000000110000000000000000 .
b110100000000110000000000000000 I"
b11 J
b11 >"
b11 C"
b0 8"
b1 7
b1 <"
b1 _"
b10 :
b10 :"
b10 ^"
18
19"
1I
b100 O
b100 7"
b100 @"
b100001 P
b100001 6"
b100001 ?"
b11 V
b11 z
b11 ~
b11 *"
b0 v
b10000000000000000000000000000001 @
b10000000000000000000000000000001 3"
b10000000000000000000000000000001 T"
b10000000000000000000000000000001 X"
b1 /"
b100001 0"
b0 2"
b0 h
b0 d
b0 m
b0 i
b11111111111111111111111111111111 _
b100000 )
b100000 +
b100000 -
b100000 ;
b100000 J"
b100000 ]"
b10000010001100000100001 N
b10000010001100000100001 5"
b10000010001100000100001 K"
b11100 M
b11100 ."
b11100 L"
b1000000000000000 "
b11 W
b11 `
b11 H"
b0 X
b0 e
b0 G"
b0 c
b0 Y
b0 g
b0 F"
b10000000000000000000000000000001 A
b10000000000000000000000000000001 %"
b10000000000000000000000000000001 P"
b10000000000000000000000000000000 1
b10000000000000000000000000000000 \"
b10000000000000000000000000000000 a"
1&
#380000
0&
#390000
b0 L
b0 ;"
b0 A"
b10001 U
b10001 {
b10001 !"
b10001 +"
b0 K
b0 ="
b0 B"
b0 6
b0 ,"
b0 c"
b0 @
b0 3"
b0 T"
b0 X"
b11 B
b11 4"
b11 S"
b11 W"
b10001 s
b0 9
b0 -"
b0 b"
b11 7
b11 <"
b11 _"
b0 :
b0 :"
b0 ^"
05
18
19"
1I
b11 J
b11 >"
b11 C"
b1 O
b1 7"
b1 @"
b100101 P
b100101 6"
b100101 ?"
b10000010001100000100000 *
b10000010001100000100000 ,
b10000010001100000100000 .
b10000010001100000100000 I"
1^
b100000000000000000000000000100010000000000000000000000000010000 m
b10000000000000000000000000010000 h
1f
b10000000000000000000000000010000 d
b10000000000000000000000000000001 i
b1111111111111111111111111111110 _
b11 /"
b0 0"
b1101 2"
b10000000000000000000000000000001 1
b10000000000000000000000000000001 \"
b10000000000000000000000000000001 a"
b0 A
b0 %"
b0 P"
b11 C
b11 $"
b11 O"
b10000000000000000000000000010000 X
b10000000000000000000000000010000 e
b10000000000000000000000000010000 G"
b10001 c
b10000000000000000000000000000001 Y
b10000000000000000000000000000001 g
b10000000000000000000000000000001 F"
b100 \
b100 o
b100 E"
b100001 ]
b100001 p
b100001 D"
b10000000000000000000000000000000 "
b110100000000110000000000000000 N
b110100000000110000000000000000 5"
b110100000000110000000000000000 K"
b100000 M
b100000 ."
b100000 L"
b100100 )
b100100 +
b100100 -
b100100 ;
b100100 J"
b100100 ]"
1&
#400000
0&
#410000
b10000000000000000000000000010000 K
b10000000000000000000000000010000 ="
b10000000000000000000000000010000 B"
b10000000000000000000000000000001 L
b10000000000000000000000000000001 ;"
b10000000000000000000000000000001 A"
b10000000000000000000000000010000 6
b10000000000000000000000000010000 ,"
b10000000000000000000000000010000 c"
b10000000000000000000000000000001 9
b10000000000000000000000000000001 -"
b10000000000000000000000000000001 b"
15
b1000110001100000100010 *
b1000110001100000100010 ,
b1000110001100000100010 .
b1000110001100000100010 I"
b11 J
b11 >"
b11 C"
b0 8"
b1 7
b1 <"
b1 _"
b10 :
b10 :"
b10 ^"
18
19"
1I
b100 O
b100 7"
b100 @"
b100000 P
b100000 6"
b100000 ?"
b0 s
b0 U
b0 {
b0 !"
b0 +"
b10001 @
b10001 3"
b10001 T"
b10001 X"
0^
b1 /"
b100000 0"
b0 2"
b0 h
0f
b0 d
b0 m
b0 i
b11111111111111111111111111111111 _
b101000 )
b101000 +
b101000 -
b101000 ;
b101000 J"
b101000 ]"
b10000010001100000100000 N
b10000010001100000100000 5"
b10000010001100000100000 K"
b100100 M
b100100 ."
b100100 L"
b10000000000000000000000000000001 "
b0 X
b0 e
b0 G"
b0 c
b0 Y
b0 g
b0 F"
b1 \
b1 o
b1 E"
b100101 ]
b100101 p
b100101 D"
b10001 A
b10001 %"
b10001 P"
b0 1
b0 \"
b0 a"
b11 2
b11 ["
b11 `"
1&
#420000
0&
#430000
b10000000000000000000000000010000 L
b10000000000000000000000000010000 ;"
b10000000000000000000000000010000 A"
b10001 U
b10001 {
b10001 !"
b10001 +"
b0 K
b0 ="
b0 B"
b10001 6
b10001 ,"
b10001 c"
b10000000000000000000000000010000 9
b10000000000000000000000000010000 -"
b10000000000000000000000000010000 b"
0R
b0 @
b0 3"
b0 T"
b0 X"
b10001 s
b11 7
b11 <"
b11 _"
b1 :
b1 :"
b1 ^"
15
18
19"
1I
b100 O
b100 7"
b100 @"
b100010 P
b100010 6"
b100010 ?"
b11000100001100000100011 *
b11000100001100000100011 ,
b11000100001100000100011 .
b11000100001100000100011 I"
1^
b100000000000000000000000000100010000000000000000000000000010000 m
b10000000000000000000000000010000 h
1f
b10000000000000000000000000010000 d
b10000000000000000000000000000001 i
b1111111111111111111111111111110 _
b11 /"
b100010 0"
b10001 1
b10001 \"
b10001 a"
b0 A
b0 %"
b0 P"
b10000000000000000000000000010000 X
b10000000000000000000000000010000 e
b10000000000000000000000000010000 G"
b10001 c
b10000000000000000000000000000001 Y
b10000000000000000000000000000001 g
b10000000000000000000000000000001 F"
b100 \
b100 o
b100 E"
b100000 ]
b100000 p
b100000 D"
b0 #
b1000110001100000100010 N
b1000110001100000100010 5"
b1000110001100000100010 K"
b101000 M
b101000 ."
b101000 L"
b101100 )
b101100 +
b101100 -
b101100 ;
b101100 J"
b101100 ]"
1&
#440000
0&
#450000
b10000000000000000000000000000001 K
b10000000000000000000000000000001 ="
b10000000000000000000000000000001 B"
b0 9
b0 -"
b0 b"
b10000000000000000000000000010000 U
b10000000000000000000000000010000 {
b10000000000000000000000000010000 !"
b10000000000000000000000000010000 +"
b10000000000000000000000000010000 L
b10000000000000000000000000010000 ;"
b10000000000000000000000000010000 A"
1R
b100000011000110000000000000010 *
b100000011000110000000000000010 ,
b100000011000110000000000000010 .
b100000011000110000000000000010 I"
b10 7
b10 <"
b10 _"
b11 :
b11 :"
b11 ^"
15
18
19"
1I
b100 O
b100 7"
b100 @"
b100011 P
b100011 6"
b100011 ?"
b0 x
b10000000000000000000000000010000 s
b10001 @
b10001 3"
b10001 T"
b10001 X"
0<
b10000000000000000000000000000001 6
b10000000000000000000000000000001 ,"
b10000000000000000000000000000001 c"
0^
b10 /"
b100011 0"
b0 h
b0 d
b0 m
b10000000000000000000000000010000 i
0f
b1111111111111111111111111101111 _
b110000 )
b110000 +
b110000 -
b110000 ;
b110000 J"
b110000 ]"
b11000100001100000100011 N
b11000100001100000100011 5"
b11000100001100000100011 K"
b101100 M
b101100 ."
b101100 L"
b10001 #
b0 X
b0 e
b0 G"
b10000000000000000000000000010000 c
b10000000000000000000000000010000 Y
b10000000000000000000000000010000 g
b10000000000000000000000000010000 F"
b100010 ]
b100010 p
b100010 D"
b10001 A
b10001 %"
b10001 P"
0=
b0 1
b0 \"
b0 a"
1&
#460000
0&
