test/test-yamin/dump.vcd
$date
	Mon Sep 12 20:04:13 2016
$end
$version
	Icarus Verilog
$end
$timescale
	1ps
$end
$scope module test $end
$var reg 1 ! clock $end
$var reg 1 " reset $end
$scope module sopc $end
$var wire 1 ! clk $end
$var wire 1 " rst $end
$var wire 1 # rom_ce $end
$var wire 1 $ mem_we_i $end
$var wire 4 % mem_sel_i [3:0] $end
$var wire 32 & mem_data_o [31:0] $end
$var wire 32 ' mem_data_i [31:0] $end
$var wire 1 ( mem_ce_i $end
$var wire 32 ) mem_addr_i [31:0] $end
$var wire 32 * inst_addr [31:0] $end
$var wire 32 + inst [31:0] $end
$scope module data_ram0 $end
$var wire 1 ! clk $end
$var wire 1 $ we $end
$var wire 4 , sel [3:0] $end
$var wire 32 - data_i [31:0] $end
$var wire 1 ( ce $end
$var wire 32 . addr [31:0] $end
$var reg 32 / data_o [31:0] $end
$upscope $end
$scope module inst_rom0 $end
$var wire 1 # ce $end
$var wire 32 0 addr [31:0] $end
$var reg 32 1 inst [31:0] $end
$upscope $end
$scope module top0 $end
$var wire 1 ! clk $end
$var wire 32 2 ram_data_i [31:0] $end
$var wire 32 3 rom_addr_o [31:0] $end
$var wire 32 4 rom_data_i [31:0] $end
$var wire 1 " rst $end
$var wire 1 5 wb_wreg_i $end
$var wire 1 6 wb_whilo_i $end
$var wire 32 7 wb_wdata_i [31:0] $end
$var wire 5 8 wb_wd_i [4:0] $end
$var wire 32 9 wb_lo_i [31:0] $end
$var wire 32 : wb_hi_i [31:0] $end
$var wire 1 ; stallreq_from_id $end
$var wire 1 < stallreq_from_ex $end
$var wire 6 = stall [5:0] $end
$var wire 1 # rom_ce_o $end
$var wire 1 > reg2_read $end
$var wire 32 ? reg2_data [31:0] $end
$var wire 5 @ reg2_addr [4:0] $end
$var wire 1 A reg1_read $end
$var wire 32 B reg1_data [31:0] $end
$var wire 5 C reg1_addr [4:0] $end
$var wire 1 $ ram_we_o $end
$var wire 4 D ram_sel_o [3:0] $end
$var wire 32 E ram_data_o [31:0] $end
$var wire 1 ( ram_ce_o $end
$var wire 32 F ram_addr_o [31:0] $end
$var wire 32 G pc [31:0] $end
$var wire 1 H next_inst_in_delayslot_o $end
$var wire 1 I mem_wreg_o $end
$var wire 1 J mem_wreg_i $end
$var wire 1 K mem_whilo_o $end
$var wire 1 L mem_whilo_i $end
$var wire 32 M mem_wdata_o [31:0] $end
$var wire 32 N mem_wdata_i [31:0] $end
$var wire 5 O mem_wd_o [4:0] $end
$var wire 5 P mem_wd_i [4:0] $end
$var wire 32 Q mem_reg2_i [31:0] $end
$var wire 32 R mem_mem_addr_i [31:0] $end
$var wire 32 S mem_lo_o [31:0] $end
$var wire 32 T mem_lo_i [31:0] $end
$var wire 32 U mem_hi_o [31:0] $end
$var wire 32 V mem_hi_i [31:0] $end
$var wire 8 W mem_aluop_i [7:0] $end
$var wire 32 X lo [31:0] $end
$var wire 1 Y is_in_delayslot_i $end
$var wire 1 Z id_wreg_o $end
$var wire 5 [ id_wd_o [4:0] $end
$var wire 32 \ id_reg2_o [31:0] $end
$var wire 32 ] id_reg1_o [31:0] $end
$var wire 32 ^ id_pc_i [31:0] $end
$var wire 32 _ id_link_address_o [31:0] $end
$var wire 1 ` id_is_in_delayslot_o $end
$var wire 32 a id_inst_o [31:0] $end
$var wire 32 b id_inst_i [31:0] $end
$var wire 1 c id_branch_flag_o $end
$var wire 3 d id_alusel_o [2:0] $end
$var wire 8 e id_aluop_o [7:0] $end
$var wire 64 f hilo_temp_o [63:0] $end
$var wire 64 g hilo_temp_i [63:0] $end
$var wire 32 h hi [31:0] $end
$var wire 1 i ex_wreg_o $end
$var wire 1 j ex_wreg_i $end
$var wire 1 k ex_whilo_o $end
$var wire 32 l ex_wdata_o [31:0] $end
$var wire 5 m ex_wd_o [4:0] $end
$var wire 5 n ex_wd_i [4:0] $end
$var wire 32 o ex_reg2_o [31:0] $end
$var wire 32 p ex_reg2_i [31:0] $end
$var wire 32 q ex_reg1_i [31:0] $end
$var wire 32 r ex_mem_addr_o [31:0] $end
$var wire 32 s ex_lo_o [31:0] $end
$var wire 32 t ex_link_address_i [31:0] $end
$var wire 1 u ex_is_in_delayslot_i $end
$var wire 32 v ex_inst_i [31:0] $end
$var wire 32 w ex_hi_o [31:0] $end
$var wire 3 x ex_alusel_i [2:0] $end
$var wire 8 y ex_aluop_o [7:0] $end
$var wire 8 z ex_aluop_i [7:0] $end
$var wire 2 { cnt_o [1:0] $end
$var wire 2 | cnt_i [1:0] $end
$var wire 32 } branch_target_address [31:0] $end
$scope module control0 $end
$var wire 1 " rst $end
$var wire 1 ; stallreq_from_id $end
$var wire 1 < stallreq_from_ex $end
$var reg 6 ~ stall [5:0] $end
$upscope $end
$scope module ex0 $end
$var wire 8 !" aluop_o [7:0] $end
$var wire 1 "" ov_sum $end
$var wire 32 #" reg1_i_not [31:0] $end
$var wire 32 $" reg2_o [31:0] $end
$var wire 1 " rst $end
$var wire 1 j wreg_i $end
$var wire 5 %" wd_i [4:0] $end
$var wire 1 6 wb_whilo_i $end
$var wire 32 &" wb_lo_i [31:0] $end
$var wire 32 '" wb_hi_i [31:0] $end
$var wire 32 (" result_sum [31:0] $end
$var wire 32 )" reg2_i_mux [31:0] $end
$var wire 32 *" reg2_i [31:0] $end
$var wire 1 +" reg1_lt_reg2 $end
$var wire 32 ," reg1_i [31:0] $end
$var wire 32 -" opdata2_mult [31:0] $end
$var wire 32 ." opdata1_mult [31:0] $end
$var wire 1 K mem_whilo_i $end
$var wire 32 /" mem_lo_i [31:0] $end
$var wire 32 0" mem_hi_i [31:0] $end
$var wire 32 1" mem_addr_o [31:0] $end
$var wire 32 2" lo_i [31:0] $end
$var wire 32 3" link_address_i [31:0] $end
$var wire 1 u is_in_delayslot_i $end
$var wire 32 4" inst_i [31:0] $end
$var wire 64 5" hilo_temp_i [63:0] $end
$var wire 64 6" hilo_temp [63:0] $end
$var wire 32 7" hi_i [31:0] $end
$var wire 2 8" cnt_i [1:0] $end
$var wire 3 9" alusel_i [2:0] $end
$var wire 8 :" aluop_i [7:0] $end
$var reg 32 ;" HI [31:0] $end
$var reg 32 <" LO [31:0] $end
$var reg 32 =" arithmetic_result [31:0] $end
$var reg 2 >" cnt_o [1:0] $end
$var reg 32 ?" hi_o [31:0] $end
$var reg 64 @" hilo_temp1 [63:0] $end
$var reg 64 A" hilo_temp_o [63:0] $end
$var reg 32 B" lo_o [31:0] $end
$var reg 32 C" logic_result [31:0] $end
$var reg 32 D" move_result [31:0] $end
$var reg 64 E" mul_result [63:0] $end
$var reg 32 F" shift_result [31:0] $end
$var reg 1 < stallreq $end
$var reg 1 G" stallreq_for_madd_msub $end
$var reg 5 H" wd_o [4:0] $end
$var reg 32 I" wdata_o [31:0] $end
$var reg 1 k whilo_o $end
$var reg 1 i wreg_o $end
$upscope $end
$scope module ex_mem0 $end
$var wire 1 ! clk $end
$var wire 2 J" cnt_i [1:0] $end
$var wire 8 K" ex_aluop [7:0] $end
$var wire 32 L" ex_hi [31:0] $end
$var wire 32 M" ex_lo [31:0] $end
$var wire 32 N" ex_mem_addr [31:0] $end
$var wire 32 O" ex_reg2 [31:0] $end
$var wire 5 P" ex_wd [4:0] $end
$var wire 32 Q" ex_wdata [31:0] $end
$var wire 1 k ex_whilo $end
$var wire 1 i ex_wreg $end
$var wire 64 R" hilo_i [63:0] $end
$var wire 1 " rst $end
$var wire 6 S" stall [5:0] $end
$var reg 2 T" cnt_o [1:0] $end
$var reg 64 U" hilo_o [63:0] $end
$var reg 8 V" mem_aluop [7:0] $end
$var reg 32 W" mem_hi [31:0] $end
$var reg 32 X" mem_lo [31:0] $end
$var reg 32 Y" mem_mem_addr [31:0] $end
$var reg 32 Z" mem_reg2 [31:0] $end
$var reg 5 [" mem_wd [4:0] $end
$var reg 32 \" mem_wdata [31:0] $end
$var reg 1 L mem_whilo $end
$var reg 1 J mem_wreg $end
$upscope $end
$scope module hilo_reg0 $end
$var wire 1 ! clk $end
$var wire 1 " rst $end
$var wire 1 6 we $end
$var wire 32 ]" lo_i [31:0] $end
$var wire 32 ^" hi_i [31:0] $end
$var reg 32 _" hi_o [31:0] $end
$var reg 32 `" lo_o [31:0] $end
$upscope $end
$scope module id0 $end
$var wire 8 a" ex_aluop_i [7:0] $end
$var wire 5 b" ex_wd_i [4:0] $end
$var wire 32 c" ex_wdata_i [31:0] $end
$var wire 1 i ex_wreg_i $end
$var wire 32 d" inst_o [31:0] $end
$var wire 1 " rst $end
$var wire 1 ; stallreq $end
$var wire 32 e" reg2_data_i [31:0] $end
$var wire 32 f" reg1_data_i [31:0] $end
$var wire 1 g" pre_inst_is_load $end
$var wire 32 h" pc_plus_8 [31:0] $end
$var wire 32 i" pc_plus_4 [31:0] $end
$var wire 32 j" pc_i [31:0] $end
$var wire 5 k" op4 [4:0] $end
$var wire 6 l" op3 [5:0] $end
$var wire 5 m" op2 [4:0] $end
$var wire 6 n" op [5:0] $end
$var wire 1 I mem_wreg_i $end
$var wire 32 o" mem_wdata_i [31:0] $end
$var wire 5 p" mem_wd_i [4:0] $end
$var wire 1 Y is_in_delayslot_i $end
$var wire 32 q" inst_i [31:0] $end
$var wire 32 r" imm_sll2_signedext [31:0] $end
$var reg 8 s" aluop_o [7:0] $end
$var reg 3 t" alusel_o [2:0] $end
$var reg 1 c branch_flag_o $end
$var reg 32 u" branch_target_address_o [31:0] $end
$var reg 32 v" imm [31:0] $end
$var reg 1 w" instvalid $end
$var reg 1 ` is_in_delayslot_o $end
$var reg 32 x" link_addr_o [31:0] $end
$var reg 1 H next_inst_in_delayslot_o $end
$var reg 5 y" reg1_addr_o [4:0] $end
$var reg 32 z" reg1_o [31:0] $end
$var reg 1 A reg1_read_o $end
$var reg 5 {" reg2_addr_o [4:0] $end
$var reg 32 |" reg2_o [31:0] $end
$var reg 1 > reg2_read_o $end
$var reg 1 }" stallreq_for_reg1_loadrelate $end
$var reg 1 ~" stallreq_for_reg2_loadrelate $end
$var reg 5 !# wd_o [4:0] $end
$var reg 1 Z wreg_o $end
$upscope $end
$scope module id_ex0 $end
$var wire 1 ! clk $end
$var wire 8 "# id_aluop [7:0] $end
$var wire 3 ## id_alusel [2:0] $end
$var wire 32 $# id_inst [31:0] $end
$var wire 1 ` id_is_in_delayslot $end
$var wire 32 %# id_link_address [31:0] $end
$var wire 32 &# id_reg1 [31:0] $end
$var wire 32 '# id_reg2 [31:0] $end
$var wire 5 (# id_wd [4:0] $end
$var wire 1 Z id_wreg $end
$var wire 1 H next_inst_in_delayslot_i $end
$var wire 1 " rst $end
$var wire 6 )# stall [5:0] $end
$var reg 8 *# ex_aluop [7:0] $end
$var reg 3 +# ex_alusel [2:0] $end
$var reg 32 ,# ex_inst [31:0] $end
$var reg 1 u ex_is_in_delayslot $end
$var reg 32 -# ex_link_address [31:0] $end
$var reg 32 .# ex_reg1 [31:0] $end
$var reg 32 /# ex_reg2 [31:0] $end
$var reg 5 0# ex_wd [4:0] $end
$var reg 1 j ex_wreg $end
$var reg 1 Y is_in_delayslot_o $end
$upscope $end
$scope module if_id0 $end
$var wire 1 ! clk $end
$var wire 32 1# if_inst [31:0] $end
$var wire 1 " rst $end
$var wire 6 2# stall [5:0] $end
$var wire 32 3# if_pc [31:0] $end
$var reg 32 4# id_inst [31:0] $end
$var reg 32 5# id_pc [31:0] $end
$upscope $end
$scope module mem0 $end
$var wire 8 6# aluop_i [7:0] $end
$var wire 32 7# hi_i [31:0] $end
$var wire 32 8# lo_i [31:0] $end
$var wire 32 9# mem_addr_i [31:0] $end
$var wire 32 :# mem_data_i [31:0] $end
$var wire 1 $ mem_we_o $end
$var wire 32 ;# reg2_i [31:0] $end
$var wire 1 " rst $end
$var wire 5 <# wd_i [4:0] $end
$var wire 32 =# wdata_i [31:0] $end
$var wire 1 L whilo_i $end
$var wire 1 J wreg_i $end
$var wire 32 ># zero32 [31:0] $end
$var reg 32 ?# hi_o [31:0] $end
$var reg 32 @# lo_o [31:0] $end
$var reg 32 A# mem_addr_o [31:0] $end
$var reg 1 ( mem_ce_o $end
$var reg 32 B# mem_data_o [31:0] $end
$var reg 4 C# mem_sel_o [3:0] $end
$var reg 1 D# mem_we $end
$var reg 5 E# wd_o [4:0] $end
$var reg 32 F# wdata_o [31:0] $end
$var reg 1 K whilo_o $end
$var reg 1 I wreg_o $end
$upscope $end
$scope module mem_wb0 $end
$var wire 1 ! clk $end
$var wire 32 G# mem_hi [31:0] $end
$var wire 32 H# mem_lo [31:0] $end
$var wire 5 I# mem_wd [4:0] $end
$var wire 32 J# mem_wdata [31:0] $end
$var wire 1 K mem_whilo $end
$var wire 1 I mem_wreg $end
$var wire 1 " rst $end
$var wire 6 K# stall [5:0] $end
$var reg 32 L# wb_hi [31:0] $end
$var reg 32 M# wb_lo [31:0] $end
$var reg 5 N# wb_wd [4:0] $end
$var reg 32 O# wb_wdata [31:0] $end
$var reg 1 6 wb_whilo $end
$var reg 1 5 wb_wreg $end
$upscope $end
$scope module pc_reg0 $end
$var wire 1 c branch_flag_i $end
$var wire 32 P# branch_target_address_i [31:0] $end
$var wire 1 ! clk $end
$var wire 1 " rst $end
$var wire 6 Q# stall [5:0] $end
$var reg 1 # ce $end
$var reg 32 R# pc [31:0] $end
$upscope $end
$scope module regfile1 $end
$var wire 1 ! clk $end
$var wire 5 S# raddr1 [4:0] $end
$var wire 5 T# raddr2 [4:0] $end
$var wire 1 A re1 $end
$var wire 1 > re2 $end
$var wire 1 " rst $end
$var wire 5 U# waddr [4:0] $end
$var wire 32 V# wdata [31:0] $end
$var wire 1 5 we $end
$var reg 32 W# rdata1 [31:0] $end
$var reg 32 X# rdata2 [31:0] $end
$upscope $end
$upscope $end
$upscope $end
$upscope $end
$scope module test $end
$scope module sopc $end
$scope module top0 $end
$scope module regfile1 $end
$var reg 32 Y# \regs[1] [31:0] $end
$upscope $end
$upscope $end
$upscope $end
$upscope $end
$scope module test $end
$scope module sopc $end
$scope module top0 $end
$scope module regfile1 $end
$var reg 32 Z# \regs[2] [31:0] $end
$upscope $end
$upscope $end
$upscope $end
$upscope $end
$scope module test $end
$scope module sopc $end
$scope module top0 $end
$scope module regfile1 $end
$var reg 32 [# \regs[3] [31:0] $end
$upscope $end
$upscope $end
$upscope $end
$upscope $end
$scope module test $end
$scope module sopc $end
$scope module top0 $end
$scope module regfile1 $end
$var reg 32 \# \regs[4] [31:0] $end
$upscope $end
$upscope $end
$upscope $end
$upscope $end
$scope module test $end
$scope module sopc $end
$scope module top0 $end
$scope module regfile1 $end
$var reg 32 ]# \regs[5] [31:0] $end
$upscope $end
$upscope $end
$upscope $end
$upscope $end
$scope module test $end
$scope module sopc $end
$scope module top0 $end
$scope module regfile1 $end
$var reg 32 ^# \regs[6] [31:0] $end
$upscope $end
$upscope $end
$upscope $end
$upscope $end
$scope module test $end
$scope module sopc $end
$scope module top0 $end
$scope module regfile1 $end
$var reg 32 _# \regs[7] [31:0] $end
$upscope $end
$upscope $end
$upscope $end
$upscope $end
$enddefinitions $end
#0
$dumpvars
bx _#
bx ^#
bx ]#
bx \#
bx [#
bx Z#
bx Y#
b0 X#
b0 W#
bx V#
bx U#
b0 T#
b0 S#
bx R#
b0 Q#
b0 P#
bx O#
bx N#
bx M#
bx L#
b0 K#
b0 J#
b0 I#
b0 H#
b0 G#
b0 F#
b0 E#
0D#
b0 C#
b0 B#
b0 A#
b0 @#
b0 ?#
b0 >#
bx =#
bx <#
bx ;#
b0 :#
bx 9#
bx 8#
bx 7#
bx 6#
bx 5#
bx 4#
bx 3#
b0 2#
bx 1#
bx 0#
bx /#
bx .#
bx -#
bx ,#
bx +#
bx *#
b0 )#
b0 (#
b0 '#
b0 &#
b0 %#
bx $#
b0 ##
b0 "#
b0 !#
0~"
0}"
b0 |"
b0 {"
b0 z"
b0 y"
b0 x"
1w"
b0 v"
b0 u"
b0 t"
b0 s"
bx00 r"
bx q"
b0 p"
b0 o"
bx n"
bx m"
bx l"
bx k"
bx j"
bx i"
bx h"
xg"
b0 f"
b0 e"
bx d"
b0 c"
bx b"
bx a"
bx `"
bx _"
bx ^"
bx ]"
bx \"
bx ["
bx Z"
bx Y"
bx X"
bx W"
bx V"
bx U"
bx T"
b0 S"
b0 R"
b0 Q"
bx P"
bx O"
bx N"
b0 M"
b0 L"
bx K"
b0 J"
b0 I"
bx H"
0G"
b0 F"
b0 E"
b0 D"
b0 C"
b0 B"
b0 A"
bx @"
b0 ?"
b0 >"
b0 ="
b0 <"
b0 ;"
bx :"
bx 9"
bx 8"
bx 7"
bx 6"
bx 5"
bx 4"
bx 3"
bx 2"
bx 1"
b0 0"
b0 /"
bx ."
bx -"
bx ,"
x+"
bx *"
bx )"
bx ("
bx '"
bx &"
bx %"
bx $"
bx #"
x""
bx !"
b0 ~
b0 }
bx |
b0 {
bx z
bx y
bx x
b0 w
bx v
xu
bx t
b0 s
bx r
bx q
bx p
bx o
bx n
bx m
b0 l
0k
xj
xi
bx h
bx g
b0 f
b0 e
b0 d
0c
bx b
bx a
x`
b0 _
bx ^
b0 ]
b0 \
b0 [
0Z
xY
bx X
bx W
bx V
b0 U
bx T
b0 S
bx R
bx Q
bx P
b0 O
bx N
b0 M
xL
0K
xJ
0I
0H
bx G
b0 F
b0 E
b0 D
b0 C
b0 B
0A
b0 @
b0 ?
0>
b0 =
0<
0;
bx :
bx 9
bx 8
bx 7
x6
x5
bx 4
bx 3
b0 2
bx 1
bx 0
b0 /
b0 .
b0 -
b0 ,
bx +
bx *
b0 )
0(
b0 '
b0 &
b0 %
0$
x#
1"
0!
$end
#1000
b0 +
b0 1
b0 4
b0 1#
0i
b0 m
b0 H"
b0 P"
b0 b"
0g"
0""
b0 r"
b0 k"
b0 l"
b0 m"
b0 n"
b0 r
b0 1"
b0 N"
b0 ("
b0 )"
b0 6"
b0 -"
b0 ."
b11111111111111111111111111111111 #"
0+"
0#
b0 a
b0 d"
b0 $#
b0 b
b0 q"
b0 4#
b100 i"
b1000 h"
b0 ^
b0 j"
b0 5#
b0 v
b0 4"
b0 ,#
0Y
0u
b0 t
b0 3"
b0 -#
0j
b0 n
b0 %"
b0 0#
b0 o
b0 $"
b0 O"
b0 p
b0 *"
b0 /#
b0 q
b0 ,"
b0 .#
b0 x
b0 9"
b0 +#
b0 y
b0 !"
b0 K"
b0 a"
b0 z
b0 :"
b0 *#
b0 Q
b0 Z"
b0 ;#
b0 R
b0 Y"
b0 9#
b0 W
b0 V"
b0 6#
b0 |
b0 8"
b0 T"
b0 g
b0 5"
b0 U"
b0 T
b0 X"
b0 8#
b0 V
b0 W"
b0 7#
0L
b0 N
b0 \"
b0 =#
0J
b0 P
b0 ["
b0 <#
b0 9
b0 &"
b0 ]"
b0 M#
b0 :
b0 '"
b0 ^"
b0 L#
06
b0 7
b0 O#
b0 V#
05
b0 8
b0 N#
b0 U#
b0 X
b0 2"
b0 `"
b0 h
b0 7"
b0 _"
1!
#2000
0!
#3000
b0 *
b0 0
b0 3
b0 G
b0 3#
b0 R#
1!
#4000
0!
#5000
1!
#6000
0!
#7000
1!
#8000
0!
#9000
1!
#10000
0!
#11000
1!
#12000
0!
#13000
1!
#14000
0!
#15000
1!
#16000
0!
#17000
1!
#18000
0!
#19000
1!
#20000
1>
b10 d
b10 t"
b10 ##
b1111100 e
b1111100 s"
b1111100 "#
1Z
1w"
b1111 %
b1111 ,
b1111 D
b1111 C#
0!
0"
#21000
b100000100000 +
b100000100000 1
b100000100000 4
b100000100000 1#
1i
1#
xu
1j
b10 x
b10 9"
b10 +#
b1111100 y
b1111100 !"
b1111100 K"
b1111100 a"
b1111100 z
b1111100 :"
b1111100 *#
1!
#22000
0!
#23000
1A
1I
1>
1w"
1Z
b1 [
b1 !#
b1 (#
b100 d
b100 t"
b100 ##
b100000 e
b100000 s"
b100000 "#
b100000000000100000000000000100 +
b100000000000100000000000000100 1
b100000000000100000000000000100 4
b100000000000100000000000000100 1#
b10000010000000 r"
b100000 l"
b1111100 W
b1111100 V"
b1111100 6#
1J
b100000100000 a
b100000100000 d"
b100000100000 $#
b100000100000 b
b100000100000 q"
b100000100000 4#
b100 *
b100 0
b100 3
b100 G
b100 3#
b100 R#
1!
#24000
0!
#25000
b100 \
b100 |"
b100 '#
b100 v"
b1100000100000 +
b1100000100000 1
b1100000100000 4
b1100000100000 1#
b10 @
b10 {"
b10 T#
0>
1A
1w"
1Z
b10 [
b10 !#
b10 (#
b100 d
b100 t"
b100 ##
b1010101 e
b1010101 s"
b1010101 "#
b1 m
b1 H"
b1 P"
b1 b"
b10000 r"
b10 k"
b100 l"
b1000 n"
b100000100000 r
b100000100000 1"
b100000100000 N"
b1000 *
b1000 0
b1000 3
b1000 G
b1000 3#
b1000 R#
b100000000000100000000000000100 a
b100000000000100000000000000100 d"
b100000000000100000000000000100 $#
b100000000000100000000000000100 b
b100000000000100000000000000100 q"
b100000000000100000000000000100 4#
b1000 i"
b1100 h"
b100 ^
b100 j"
b100 5#
b100000100000 v
b100000100000 4"
b100000100000 ,#
b1 n
b1 %"
b1 0#
b100 x
b100 9"
b100 +#
b100000 y
b100000 !"
b100000 K"
b100000 a"
b100000 z
b100000 :"
b100000 *#
15
1!
#26000
0!
#27000
b100 l
b100 I"
b100 Q"
b100 c"
b0 \
b0 |"
b0 '#
b100 ="
1>
b1 O
b1 p"
b1 E#
b1 I#
b10 m
b10 H"
b10 P"
b10 b"
b0 v"
b0 @
b0 {"
b0 T#
1A
1w"
1Z
b11 [
b11 !#
b11 (#
b100 d
b100 t"
b100 ##
b100000 e
b100000 s"
b100000 "#
b10001100001001000000000001010000 +
b10001100001001000000000001010000 1
b10001100001001000000000001010000 4
b10001100001001000000000001010000 1#
b100 r
b100 1"
b100 N"
1+"
b100 ("
b100 )"
b100 -"
b110000010000000 r"
b0 k"
b100000 l"
b0 n"
b100000100000 R
b100000100000 Y"
b100000100000 9#
b100000 W
b100000 V"
b100000 6#
b1 P
b1 ["
b1 <#
b100000000000100000000000000100 v
b100000000000100000000000000100 4"
b100000000000100000000000000100 ,#
b10 n
b10 %"
b10 0#
b100 o
b100 $"
b100 O"
b100 p
b100 *"
b100 /#
b1010101 y
b1010101 !"
b1010101 K"
b1010101 a"
b1010101 z
b1010101 :"
b1010101 *#
b1100000100000 a
b1100000100000 d"
b1100000100000 $#
b1100000100000 b
b1100000100000 q"
b1100000100000 4#
b1100 i"
b10000 h"
b1000 ^
b1000 j"
b1000 5#
b1100 *
b1100 0
b1100 3
b1100 G
b1100 3#
b1100 R#
1!
#28000
0!
#29000
b0 l
b0 I"
b0 Q"
b0 c"
b0 ="
b100000001000010000000000000100 +
b100000001000010000000000000100 1
b100000001000010000000000000100 4
b100000001000010000000000000100 1#
b100 @
b100 {"
b100 T#
b1 C
b1 y"
b1 S#
0>
1A
1w"
1Z
b100 [
b100 !#
b100 (#
b111 d
b111 t"
b111 ##
b11100011 e
b11100011 s"
b11100011 "#
b11 m
b11 H"
b11 P"
b11 b"
b100 M
b100 o"
b100 F#
b100 J#
b10 O
b10 p"
b10 E#
b10 I#
b101000000 r"
b100 k"
b10000 l"
b1 m"
b100011 n"
b1100000100000 r
b1100000100000 1"
b1100000100000 N"
0+"
b0 ("
b0 )"
b0 -"
b10000 *
b10000 0
b10000 3
b10000 G
b10000 3#
b10000 R#
b10001100001001000000000001010000 a
b10001100001001000000000001010000 d"
b10001100001001000000000001010000 $#
b10001100001001000000000001010000 b
b10001100001001000000000001010000 q"
b10001100001001000000000001010000 4#
b10000 i"
b10100 h"
b1100 ^
b1100 j"
b1100 5#
b1100000100000 v
b1100000100000 4"
b1100000100000 ,#
b11 n
b11 %"
b11 0#
b0 o
b0 $"
b0 O"
b0 p
b0 *"
b0 /#
b100000 y
b100000 !"
b100000 K"
b100000 a"
b100000 z
b100000 :"
b100000 *#
b100 Q
b100 Z"
b100 ;#
b100 R
b100 Y"
b100 9#
b1010101 W
b1010101 V"
b1010101 6#
b100 N
b100 \"
b100 =#
b10 P
b10 ["
b10 <#
b1 8
b1 N#
b1 U#
1!
#30000
0!
#31000
b100 \
b100 |"
b100 '#
b100 v"
b0 M
b0 o"
b0 F#
b0 J#
b11 O
b11 p"
b11 E#
b11 I#
b100 m
b100 H"
b100 P"
b100 b"
b1 @
b1 {"
b1 T#
1A
1w"
1Z
b1 [
b1 !#
b1 (#
b100 d
b100 t"
b100 ##
b1010101 e
b1010101 s"
b1010101 "#
b11001000001100000100000 +
b11001000001100000100000 1
b11001000001100000100000 4
b11001000001100000100000 1#
1g"
b1010000 r
b1010000 1"
b1010000 N"
b10000 r"
b1 k"
b100 l"
b0 m"
b1000 n"
b100 7
b100 O#
b100 V#
b10 8
b10 N#
b10 U#
b0 Q
b0 Z"
b0 ;#
b1100000100000 R
b1100000100000 Y"
b1100000100000 9#
b100000 W
b100000 V"
b100000 6#
b0 N
b0 \"
b0 =#
b11 P
b11 ["
b11 <#
b10001100001001000000000001010000 v
b10001100001001000000000001010000 4"
b10001100001001000000000001010000 ,#
b100 n
b100 %"
b100 0#
b111 x
b111 9"
b111 +#
b11100011 y
b11100011 !"
b11100011 K"
b11100011 a"
b11100011 z
b11100011 :"
b11100011 *#
b0 Y#
b100000001000010000000000000100 a
b100000001000010000000000000100 d"
b100000001000010000000000000100 $#
b100000001000010000000000000100 b
b100000001000010000000000000100 q"
b100000001000010000000000000100 4#
b10100 i"
b11000 h"
b10000 ^
b10000 j"
b10000 5#
b10100 *
b10100 0
b10100 3
b10100 G
b10100 3#
b10100 R#
1!
#32000
0!
#33000
bx M
bx o"
bx F#
bx J#
b100 l
b100 I"
b100 Q"
b100 c"
bx ?
bx e"
bx X#
bx &
bx /
bx 2
bx :#
bx \
bx |"
bx '#
1>
b100 ="
b100000010000101111111111111111 +
b100000010000101111111111111111 1
b100000010000101111111111111111 4
b100000010000101111111111111111 1#
b0 v"
b100 @
b100 {"
b100 T#
b11 C
b11 y"
b11 S#
1A
1w"
1Z
b11 [
b11 !#
b11 (#
b100 d
b100 t"
b100 ##
b100000 e
b100000 s"
b100000 "#
b1 m
b1 H"
b1 P"
b1 b"
1(
b1010000 )
b1010000 .
b1010000 F
b1010000 A#
b100 O
b100 p"
b100 E#
b100 I#
0g"
b110000010000000 r"
b100 k"
b100000 l"
b0 n"
b100 r
b100 1"
b100 N"
1+"
b100 ("
b100 )"
b100 -"
b11000 *
b11000 0
b11000 3
b11000 G
b11000 3#
b11000 R#
b11001000001100000100000 a
b11001000001100000100000 d"
b11001000001100000100000 $#
b11001000001100000100000 b
b11001000001100000100000 q"
b11001000001100000100000 4#
b11000 i"
b11100 h"
b10100 ^
b10100 j"
b10100 5#
b100 Z#
b100000001000010000000000000100 v
b100000001000010000000000000100 4"
b100000001000010000000000000100 ,#
b1 n
b1 %"
b1 0#
b100 o
b100 $"
b100 O"
b100 p
b100 *"
b100 /#
b100 x
b100 9"
b100 +#
b1010101 y
b1010101 !"
b1010101 K"
b1010101 a"
b1010101 z
b1010101 :"
b1010101 *#
b1010000 R
b1010000 Y"
b1010000 9#
b11100011 W
b11100011 V"
b11100011 6#
b100 P
b100 ["
b100 <#
b0 7
b0 O#
b0 V#
b11 8
b11 N#
b11 U#
1!
#34000
0!
#35000
b100 ]
b100 z"
b100 &#
bx l
bx I"
bx Q"
bx c"
b0 &
b0 /
b0 2
b0 :#
b11111111111111111111111111111111 \
b11111111111111111111111111111111 |"
b11111111111111111111111111111111 '#
b0 ?
b0 e"
b0 X#
b100 B
b100 f"
b100 W#
bx ="
bx E"
b11111111111111111111111111111111 v"
0(
b0 )
b0 .
b0 F
b0 A#
b100 M
b100 o"
b100 F#
b100 J#
b1 O
b1 p"
b1 E#
b1 I#
b11 m
b11 H"
b11 P"
b11 b"
b10 @
b10 {"
b10 T#
b10 C
b10 y"
b10 S#
0>
1A
1w"
1Z
b10 [
b10 !#
b10 (#
b100 d
b100 t"
b100 ##
b1010101 e
b1010101 s"
b1010101 "#
b10100010000001111111111111011 +
b10100010000001111111111111011 1
b10100010000001111111111111011 4
b10100010000001111111111111011 1#
x""
b1100000100000 r
b1100000100000 1"
b1100000100000 N"
x+"
bx ("
bx )"
bx 6"
bx -"
b11111111111111111111111111111100 r"
b10 k"
b111111 l"
b11111 m"
b1000 n"
bx 7
bx O#
bx V#
b100 8
b100 N#
b100 U#
b100 Q
b100 Z"
b100 ;#
b100 R
b100 Y"
b100 9#
b1010101 W
b1010101 V"
b1010101 6#
b100 N
b100 \"
b100 =#
b1 P
b1 ["
b1 <#
b11001000001100000100000 v
b11001000001100000100000 4"
b11001000001100000100000 ,#
b11 n
b11 %"
b11 0#
bx o
bx $"
bx O"
bx p
bx *"
bx /#
b100000 y
b100000 !"
b100000 K"
b100000 a"
b100000 z
b100000 :"
b100000 *#
b0 [#
b100000010000101111111111111111 a
b100000010000101111111111111111 d"
b100000010000101111111111111111 $#
b100000010000101111111111111111 b
b100000010000101111111111111111 q"
b100000010000101111111111111111 4#
b11100 i"
b100000 h"
b11000 ^
b11000 j"
b11000 5#
b11100 *
b11100 0
b11100 3
b11100 G
b11100 3#
b11100 R#
1!
#36000
0!
